%!PS-Adobe-3.0 EPSF-3.0
%%Creator: (MATLAB, The Mathworks, Inc. Version 9.2.0.556344 \(R2017a\). Operating System: Windows 7)
%%Title: (C:/Users/Muriel Dunn/master/thesis/figures/LRADCPsplitcount.eps)
%%CreationDate: 2019-05-09T15:15:48
%%Pages: (atend)
%%BoundingBox:    14     0   388   305
%%LanguageLevel: 2
%%EndComments
%%BeginProlog
%%BeginResource: procset (Apache XML Graphics Std ProcSet) 1.2 0
%%Version: 1.2 0
%%Copyright: (Copyright 2001-2003,2010 The Apache Software Foundation. License terms: http://www.apache.org/licenses/LICENSE-2.0)
/bd{bind def}bind def
/ld{load def}bd
/GR/grestore ld
/M/moveto ld
/LJ/setlinejoin ld
/C/curveto ld
/f/fill ld
/LW/setlinewidth ld
/GC/setgray ld
/t/show ld
/N/newpath ld
/CT/concat ld
/cp/closepath ld
/S/stroke ld
/L/lineto ld
/CC/setcmykcolor ld
/A/ashow ld
/GS/gsave ld
/RC/setrgbcolor ld
/RM/rmoveto ld
/ML/setmiterlimit ld
/re {4 2 roll M
1 index 0 rlineto
0 exch rlineto
neg 0 rlineto
cp } bd
/_ctm matrix def
/_tm matrix def
/BT { _ctm currentmatrix pop matrix _tm copy pop 0 0 moveto } bd
/ET { _ctm setmatrix } bd
/iTm { _ctm setmatrix _tm concat } bd
/Tm { _tm astore pop iTm 0 0 moveto } bd
/ux 0.0 def
/uy 0.0 def
/F {
  /Tp exch def
  /Tf exch def
  Tf findfont Tp scalefont setfont
  /cf Tf def  /cs Tp def
} bd
/ULS {currentpoint /uy exch def /ux exch def} bd
/ULE {
  /Tcx currentpoint pop def
  gsave
  newpath
  cf findfont cs scalefont dup
  /FontMatrix get 0 get /Ts exch def /FontInfo get dup
  /UnderlinePosition get Ts mul /To exch def
  /UnderlineThickness get Ts mul /Tt exch def
  ux uy To add moveto  Tcx uy To add lineto
  Tt setlinewidth stroke
  grestore
} bd
/OLE {
  /Tcx currentpoint pop def
  gsave
  newpath
  cf findfont cs scalefont dup
  /FontMatrix get 0 get /Ts exch def /FontInfo get dup
  /UnderlinePosition get Ts mul /To exch def
  /UnderlineThickness get Ts mul /Tt exch def
  ux uy To add cs add moveto Tcx uy To add cs add lineto
  Tt setlinewidth stroke
  grestore
} bd
/SOE {
  /Tcx currentpoint pop def
  gsave
  newpath
  cf findfont cs scalefont dup
  /FontMatrix get 0 get /Ts exch def /FontInfo get dup
  /UnderlinePosition get Ts mul /To exch def
  /UnderlineThickness get Ts mul /Tt exch def
  ux uy To add cs 10 mul 26 idiv add moveto Tcx uy To add cs 10 mul 26 idiv add lineto
  Tt setlinewidth stroke
  grestore
} bd
/QT {
/Y22 exch store
/X22 exch store
/Y21 exch store
/X21 exch store
currentpoint
/Y21 load 2 mul add 3 div exch
/X21 load 2 mul add 3 div exch
/X21 load 2 mul /X22 load add 3 div
/Y21 load 2 mul /Y22 load add 3 div
/X22 load /Y22 load curveto
} bd
/SSPD {
dup length /d exch dict def
{
/v exch def
/k exch def
currentpagedevice k known {
/cpdv currentpagedevice k get def
v cpdv ne {
/upd false def
/nullv v type /nulltype eq def
/nullcpdv cpdv type /nulltype eq def
nullv nullcpdv or
{
/upd true def
} {
/sametype v type cpdv type eq def
sametype {
v type /arraytype eq {
/vlen v length def
/cpdvlen cpdv length def
vlen cpdvlen eq {
0 1 vlen 1 sub {
/i exch def
/obj v i get def
/cpdobj cpdv i get def
obj cpdobj ne {
/upd true def
exit
} if
} for
} {
/upd true def
} ifelse
} {
v type /dicttype eq {
v {
/dv exch def
/dk exch def
/cpddv cpdv dk get def
dv cpddv ne {
/upd true def
exit
} if
} forall
} {
/upd true def
} ifelse
} ifelse
} if
} ifelse
upd true eq {
d k v put
} if
} if
} if
} forall
d length 0 gt {
d setpagedevice
} if
} bd
/RE { % /NewFontName [NewEncodingArray] /FontName RE -
  findfont dup length dict begin
  {
    1 index /FID ne
    {def} {pop pop} ifelse
  } forall
  /Encoding exch def
  /FontName 1 index def
  currentdict definefont pop
  end
} bind def
%%EndResource
%%BeginResource: procset (Apache XML Graphics EPS ProcSet) 1.0 0
%%Version: 1.0 0
%%Copyright: (Copyright 2002-2003 The Apache Software Foundation. License terms: http://www.apache.org/licenses/LICENSE-2.0)
/BeginEPSF { %def
/b4_Inc_state save def         % Save state for cleanup
/dict_count countdictstack def % Count objects on dict stack
/op_count count 1 sub def      % Count objects on operand stack
userdict begin                 % Push userdict on dict stack
/showpage { } def              % Redefine showpage, { } = null proc
0 setgray 0 setlinecap         % Prepare graphics state
1 setlinewidth 0 setlinejoin
10 setmiterlimit [ ] 0 setdash newpath
/languagelevel where           % If level not equal to 1 then
{pop languagelevel             % set strokeadjust and
1 ne                           % overprint to their defaults.
{false setstrokeadjust false setoverprint
} if
} if
} bd
/EndEPSF { %def
count op_count sub {pop} repeat            % Clean up stacks
countdictstack dict_count sub {end} repeat
b4_Inc_state restore
} bd
%%EndResource
%FOPBeginFontDict
%%IncludeResource: font Courier-Bold
%%IncludeResource: font Helvetica
%%IncludeResource: font Courier-BoldOblique
%%IncludeResource: font Courier-Oblique
%%IncludeResource: font Times-Roman
%%IncludeResource: font Helvetica-BoldOblique
%%IncludeResource: font Helvetica-Bold
%%IncludeResource: font Helvetica-Oblique
%%IncludeResource: font Times-BoldItalic
%%IncludeResource: font Courier
%%IncludeResource: font Times-Italic
%%IncludeResource: font Times-Bold
%%IncludeResource: font Symbol
%%IncludeResource: font ZapfDingbats
%FOPEndFontDict
%%BeginResource: encoding WinAnsiEncoding
/WinAnsiEncoding [
/.notdef /.notdef /.notdef /.notdef /.notdef
/.notdef /.notdef /.notdef /.notdef /.notdef
/.notdef /.notdef /.notdef /.notdef /.notdef
/.notdef /.notdef /.notdef /.notdef /.notdef
/.notdef /.notdef /.notdef /.notdef /.notdef
/.notdef /.notdef /.notdef /.notdef /.notdef
/.notdef /.notdef /space /exclam /quotedbl
/numbersign /dollar /percent /ampersand /quotesingle
/parenleft /parenright /asterisk /plus /comma
/hyphen /period /slash /zero /one
/two /three /four /five /six
/seven /eight /nine /colon /semicolon
/less /equal /greater /question /at
/A /B /C /D /E
/F /G /H /I /J
/K /L /M /N /O
/P /Q /R /S /T
/U /V /W /X /Y
/Z /bracketleft /backslash /bracketright /asciicircum
/underscore /quoteleft /a /b /c
/d /e /f /g /h
/i /j /k /l /m
/n /o /p /q /r
/s /t /u /v /w
/x /y /z /braceleft /bar
/braceright /asciitilde /bullet /Euro /bullet
/quotesinglbase /florin /quotedblbase /ellipsis /dagger
/daggerdbl /circumflex /perthousand /Scaron /guilsinglleft
/OE /bullet /Zcaron /bullet /bullet
/quoteleft /quoteright /quotedblleft /quotedblright /bullet
/endash /emdash /asciitilde /trademark /scaron
/guilsinglright /oe /bullet /zcaron /Ydieresis
/space /exclamdown /cent /sterling /currency
/yen /brokenbar /section /dieresis /copyright
/ordfeminine /guillemotleft /logicalnot /sfthyphen /registered
/macron /degree /plusminus /twosuperior /threesuperior
/acute /mu /paragraph /middot /cedilla
/onesuperior /ordmasculine /guillemotright /onequarter /onehalf
/threequarters /questiondown /Agrave /Aacute /Acircumflex
/Atilde /Adieresis /Aring /AE /Ccedilla
/Egrave /Eacute /Ecircumflex /Edieresis /Igrave
/Iacute /Icircumflex /Idieresis /Eth /Ntilde
/Ograve /Oacute /Ocircumflex /Otilde /Odieresis
/multiply /Oslash /Ugrave /Uacute /Ucircumflex
/Udieresis /Yacute /Thorn /germandbls /agrave
/aacute /acircumflex /atilde /adieresis /aring
/ae /ccedilla /egrave /eacute /ecircumflex
/edieresis /igrave /iacute /icircumflex /idieresis
/eth /ntilde /ograve /oacute /ocircumflex
/otilde /odieresis /divide /oslash /ugrave
/uacute /ucircumflex /udieresis /yacute /thorn
/ydieresis
] def
%%EndResource
%FOPBeginFontReencode
/Courier-Bold findfont
dup length dict begin
  {1 index /FID ne {def} {pop pop} ifelse} forall
  /Encoding WinAnsiEncoding def
  currentdict
end
/Courier-Bold exch definefont pop
/Helvetica findfont
dup length dict begin
  {1 index /FID ne {def} {pop pop} ifelse} forall
  /Encoding WinAnsiEncoding def
  currentdict
end
/Helvetica exch definefont pop
/Courier-BoldOblique findfont
dup length dict begin
  {1 index /FID ne {def} {pop pop} ifelse} forall
  /Encoding WinAnsiEncoding def
  currentdict
end
/Courier-BoldOblique exch definefont pop
/Courier-Oblique findfont
dup length dict begin
  {1 index /FID ne {def} {pop pop} ifelse} forall
  /Encoding WinAnsiEncoding def
  currentdict
end
/Courier-Oblique exch definefont pop
/Times-Roman findfont
dup length dict begin
  {1 index /FID ne {def} {pop pop} ifelse} forall
  /Encoding WinAnsiEncoding def
  currentdict
end
/Times-Roman exch definefont pop
/Helvetica-BoldOblique findfont
dup length dict begin
  {1 index /FID ne {def} {pop pop} ifelse} forall
  /Encoding WinAnsiEncoding def
  currentdict
end
/Helvetica-BoldOblique exch definefont pop
/Helvetica-Bold findfont
dup length dict begin
  {1 index /FID ne {def} {pop pop} ifelse} forall
  /Encoding WinAnsiEncoding def
  currentdict
end
/Helvetica-Bold exch definefont pop
/Helvetica-Oblique findfont
dup length dict begin
  {1 index /FID ne {def} {pop pop} ifelse} forall
  /Encoding WinAnsiEncoding def
  currentdict
end
/Helvetica-Oblique exch definefont pop
/Times-BoldItalic findfont
dup length dict begin
  {1 index /FID ne {def} {pop pop} ifelse} forall
  /Encoding WinAnsiEncoding def
  currentdict
end
/Times-BoldItalic exch definefont pop
/Courier findfont
dup length dict begin
  {1 index /FID ne {def} {pop pop} ifelse} forall
  /Encoding WinAnsiEncoding def
  currentdict
end
/Courier exch definefont pop
/Times-Italic findfont
dup length dict begin
  {1 index /FID ne {def} {pop pop} ifelse} forall
  /Encoding WinAnsiEncoding def
  currentdict
end
/Times-Italic exch definefont pop
/Times-Bold findfont
dup length dict begin
  {1 index /FID ne {def} {pop pop} ifelse} forall
  /Encoding WinAnsiEncoding def
  currentdict
end
/Times-Bold exch definefont pop
%FOPEndFontReencode
%%EndProlog
%%Page: 1 1
%%PageBoundingBox: 0 0 420 315
%%BeginPageSetup
[1 0 0 -1 0 315] CT
%%EndPageSetup
GS
[0.75 0 0 0.75 0 0] CT
1 GC
N
0 0 560 420 re
f
GR
GS
[0.75 0 0 0.75 0 0] CT
1 GC
N
0 0 560 420 re
f
GR
GS
[0.75 0 0 0.75 0 0] CT
1 GC
N
73 368 M
507 368 L
507 31 L
73 31 L
cp
f
GR
GS
[0.75 0 0 0.75 0 0] CT
0.149 GC
2 setlinecap
1 LJ
0.667 LW
N
73 368 M
507 368 L
S
GR
GS
[0.75 0 0 0.75 0 0] CT
0.149 GC
2 setlinecap
1 LJ
0.667 LW
N
73 31 M
507 31 L
S
GR
GS
[0.75 0 0 0.75 0 0] CT
0.149 GC
2 setlinecap
1 LJ
0.667 LW
N
73 368 M
73 363.66 L
S
GR
GS
[0.75 0 0 0.75 0 0] CT
0.149 GC
2 setlinecap
1 LJ
0.667 LW
N
181.5 368 M
181.5 363.66 L
S
GR
GS
[0.75 0 0 0.75 0 0] CT
0.149 GC
2 setlinecap
1 LJ
0.667 LW
N
290 368 M
290 363.66 L
S
GR
GS
[0.75 0 0 0.75 0 0] CT
0.149 GC
2 setlinecap
1 LJ
0.667 LW
N
398.5 368 M
398.5 363.66 L
S
GR
GS
[0.75 0 0 0.75 0 0] CT
0.149 GC
2 setlinecap
1 LJ
0.667 LW
N
507 368 M
507 363.66 L
S
GR
GS
[0.75 0 0 0.75 0 0] CT
0.149 GC
2 setlinecap
1 LJ
0.667 LW
N
73 31 M
73 35.34 L
S
GR
GS
[0.75 0 0 0.75 0 0] CT
0.149 GC
2 setlinecap
1 LJ
0.667 LW
N
181.5 31 M
181.5 35.34 L
S
GR
GS
[0.75 0 0 0.75 0 0] CT
0.149 GC
2 setlinecap
1 LJ
0.667 LW
N
290 31 M
290 35.34 L
S
GR
GS
[0.75 0 0 0.75 0 0] CT
0.149 GC
2 setlinecap
1 LJ
0.667 LW
N
398.5 31 M
398.5 35.34 L
S
GR
GS
[0.75 0 0 0.75 0 0] CT
0.149 GC
2 setlinecap
1 LJ
0.667 LW
N
507 31 M
507 35.34 L
S
GR
GS
[0.75 0 0 0.75 0 0] CT
0.149 GC
2 setlinecap
1 LJ
0.667 LW
N
73 368 M
73 365.83 L
S
GR
GS
[0.75 0 0 0.75 0 0] CT
0.149 GC
2 setlinecap
1 LJ
0.667 LW
N
105.662 368 M
105.662 365.83 L
S
GR
GS
[0.75 0 0 0.75 0 0] CT
0.149 GC
2 setlinecap
1 LJ
0.667 LW
N
124.768 368 M
124.768 365.83 L
S
GR
GS
[0.75 0 0 0.75 0 0] CT
0.149 GC
2 setlinecap
1 LJ
0.667 LW
N
138.324 368 M
138.324 365.83 L
S
GR
GS
[0.75 0 0 0.75 0 0] CT
0.149 GC
2 setlinecap
1 LJ
0.667 LW
N
148.838 368 M
148.838 365.83 L
S
GR
GS
[0.75 0 0 0.75 0 0] CT
0.149 GC
2 setlinecap
1 LJ
0.667 LW
N
157.429 368 M
157.429 365.83 L
S
GR
GS
[0.75 0 0 0.75 0 0] CT
0.149 GC
2 setlinecap
1 LJ
0.667 LW
N
164.693 368 M
164.693 365.83 L
S
GR
GS
[0.75 0 0 0.75 0 0] CT
0.149 GC
2 setlinecap
1 LJ
0.667 LW
N
170.985 368 M
170.985 365.83 L
S
GR
GS
[0.75 0 0 0.75 0 0] CT
0.149 GC
2 setlinecap
1 LJ
0.667 LW
N
176.535 368 M
176.535 365.83 L
S
GR
GS
[0.75 0 0 0.75 0 0] CT
0.149 GC
2 setlinecap
1 LJ
0.667 LW
N
181.5 368 M
181.5 365.83 L
S
GR
GS
[0.75 0 0 0.75 0 0] CT
0.149 GC
2 setlinecap
1 LJ
0.667 LW
N
214.162 368 M
214.162 365.83 L
S
GR
GS
[0.75 0 0 0.75 0 0] CT
0.149 GC
2 setlinecap
1 LJ
0.667 LW
N
233.268 368 M
233.268 365.83 L
S
GR
GS
[0.75 0 0 0.75 0 0] CT
0.149 GC
2 setlinecap
1 LJ
0.667 LW
N
246.824 368 M
246.824 365.83 L
S
GR
GS
[0.75 0 0 0.75 0 0] CT
0.149 GC
2 setlinecap
1 LJ
0.667 LW
N
257.338 368 M
257.338 365.83 L
S
GR
GS
[0.75 0 0 0.75 0 0] CT
0.149 GC
2 setlinecap
1 LJ
0.667 LW
N
265.929 368 M
265.929 365.83 L
S
GR
GS
[0.75 0 0 0.75 0 0] CT
0.149 GC
2 setlinecap
1 LJ
0.667 LW
N
273.193 368 M
273.193 365.83 L
S
GR
GS
[0.75 0 0 0.75 0 0] CT
0.149 GC
2 setlinecap
1 LJ
0.667 LW
N
279.485 368 M
279.485 365.83 L
S
GR
GS
[0.75 0 0 0.75 0 0] CT
0.149 GC
2 setlinecap
1 LJ
0.667 LW
N
285.035 368 M
285.035 365.83 L
S
GR
GS
[0.75 0 0 0.75 0 0] CT
0.149 GC
2 setlinecap
1 LJ
0.667 LW
N
290 368 M
290 365.83 L
S
GR
GS
[0.75 0 0 0.75 0 0] CT
0.149 GC
2 setlinecap
1 LJ
0.667 LW
N
322.662 368 M
322.662 365.83 L
S
GR
GS
[0.75 0 0 0.75 0 0] CT
0.149 GC
2 setlinecap
1 LJ
0.667 LW
N
341.768 368 M
341.768 365.83 L
S
GR
GS
[0.75 0 0 0.75 0 0] CT
0.149 GC
2 setlinecap
1 LJ
0.667 LW
N
355.324 368 M
355.324 365.83 L
S
GR
GS
[0.75 0 0 0.75 0 0] CT
0.149 GC
2 setlinecap
1 LJ
0.667 LW
N
365.838 368 M
365.838 365.83 L
S
GR
GS
[0.75 0 0 0.75 0 0] CT
0.149 GC
2 setlinecap
1 LJ
0.667 LW
N
374.429 368 M
374.429 365.83 L
S
GR
GS
[0.75 0 0 0.75 0 0] CT
0.149 GC
2 setlinecap
1 LJ
0.667 LW
N
381.693 368 M
381.693 365.83 L
S
GR
GS
[0.75 0 0 0.75 0 0] CT
0.149 GC
2 setlinecap
1 LJ
0.667 LW
N
387.985 368 M
387.985 365.83 L
S
GR
GS
[0.75 0 0 0.75 0 0] CT
0.149 GC
2 setlinecap
1 LJ
0.667 LW
N
393.535 368 M
393.535 365.83 L
S
GR
GS
[0.75 0 0 0.75 0 0] CT
0.149 GC
2 setlinecap
1 LJ
0.667 LW
N
398.5 368 M
398.5 365.83 L
S
GR
GS
[0.75 0 0 0.75 0 0] CT
0.149 GC
2 setlinecap
1 LJ
0.667 LW
N
431.162 368 M
431.162 365.83 L
S
GR
GS
[0.75 0 0 0.75 0 0] CT
0.149 GC
2 setlinecap
1 LJ
0.667 LW
N
450.268 368 M
450.268 365.83 L
S
GR
GS
[0.75 0 0 0.75 0 0] CT
0.149 GC
2 setlinecap
1 LJ
0.667 LW
N
463.824 368 M
463.824 365.83 L
S
GR
GS
[0.75 0 0 0.75 0 0] CT
0.149 GC
2 setlinecap
1 LJ
0.667 LW
N
474.338 368 M
474.338 365.83 L
S
GR
GS
[0.75 0 0 0.75 0 0] CT
0.149 GC
2 setlinecap
1 LJ
0.667 LW
N
482.929 368 M
482.929 365.83 L
S
GR
GS
[0.75 0 0 0.75 0 0] CT
0.149 GC
2 setlinecap
1 LJ
0.667 LW
N
490.193 368 M
490.193 365.83 L
S
GR
GS
[0.75 0 0 0.75 0 0] CT
0.149 GC
2 setlinecap
1 LJ
0.667 LW
N
496.485 368 M
496.485 365.83 L
S
GR
GS
[0.75 0 0 0.75 0 0] CT
0.149 GC
2 setlinecap
1 LJ
0.667 LW
N
502.035 368 M
502.035 365.83 L
S
GR
GS
[0.75 0 0 0.75 0 0] CT
0.149 GC
2 setlinecap
1 LJ
0.667 LW
N
507 368 M
507 365.83 L
S
GR
GS
[0.75 0 0 0.75 0 0] CT
0.149 GC
2 setlinecap
1 LJ
0.667 LW
N
73 31 M
73 33.17 L
S
GR
GS
[0.75 0 0 0.75 0 0] CT
0.149 GC
2 setlinecap
1 LJ
0.667 LW
N
105.662 31 M
105.662 33.17 L
S
GR
GS
[0.75 0 0 0.75 0 0] CT
0.149 GC
2 setlinecap
1 LJ
0.667 LW
N
124.768 31 M
124.768 33.17 L
S
GR
GS
[0.75 0 0 0.75 0 0] CT
0.149 GC
2 setlinecap
1 LJ
0.667 LW
N
138.324 31 M
138.324 33.17 L
S
GR
GS
[0.75 0 0 0.75 0 0] CT
0.149 GC
2 setlinecap
1 LJ
0.667 LW
N
148.838 31 M
148.838 33.17 L
S
GR
GS
[0.75 0 0 0.75 0 0] CT
0.149 GC
2 setlinecap
1 LJ
0.667 LW
N
157.429 31 M
157.429 33.17 L
S
GR
GS
[0.75 0 0 0.75 0 0] CT
0.149 GC
2 setlinecap
1 LJ
0.667 LW
N
164.693 31 M
164.693 33.17 L
S
GR
GS
[0.75 0 0 0.75 0 0] CT
0.149 GC
2 setlinecap
1 LJ
0.667 LW
N
170.985 31 M
170.985 33.17 L
S
GR
GS
[0.75 0 0 0.75 0 0] CT
0.149 GC
2 setlinecap
1 LJ
0.667 LW
N
176.535 31 M
176.535 33.17 L
S
GR
GS
[0.75 0 0 0.75 0 0] CT
0.149 GC
2 setlinecap
1 LJ
0.667 LW
N
181.5 31 M
181.5 33.17 L
S
GR
GS
[0.75 0 0 0.75 0 0] CT
0.149 GC
2 setlinecap
1 LJ
0.667 LW
N
214.162 31 M
214.162 33.17 L
S
GR
GS
[0.75 0 0 0.75 0 0] CT
0.149 GC
2 setlinecap
1 LJ
0.667 LW
N
233.268 31 M
233.268 33.17 L
S
GR
GS
[0.75 0 0 0.75 0 0] CT
0.149 GC
2 setlinecap
1 LJ
0.667 LW
N
246.824 31 M
246.824 33.17 L
S
GR
GS
[0.75 0 0 0.75 0 0] CT
0.149 GC
2 setlinecap
1 LJ
0.667 LW
N
257.338 31 M
257.338 33.17 L
S
GR
GS
[0.75 0 0 0.75 0 0] CT
0.149 GC
2 setlinecap
1 LJ
0.667 LW
N
265.929 31 M
265.929 33.17 L
S
GR
GS
[0.75 0 0 0.75 0 0] CT
0.149 GC
2 setlinecap
1 LJ
0.667 LW
N
273.193 31 M
273.193 33.17 L
S
GR
GS
[0.75 0 0 0.75 0 0] CT
0.149 GC
2 setlinecap
1 LJ
0.667 LW
N
279.485 31 M
279.485 33.17 L
S
GR
GS
[0.75 0 0 0.75 0 0] CT
0.149 GC
2 setlinecap
1 LJ
0.667 LW
N
285.035 31 M
285.035 33.17 L
S
GR
GS
[0.75 0 0 0.75 0 0] CT
0.149 GC
2 setlinecap
1 LJ
0.667 LW
N
290 31 M
290 33.17 L
S
GR
GS
[0.75 0 0 0.75 0 0] CT
0.149 GC
2 setlinecap
1 LJ
0.667 LW
N
322.662 31 M
322.662 33.17 L
S
GR
GS
[0.75 0 0 0.75 0 0] CT
0.149 GC
2 setlinecap
1 LJ
0.667 LW
N
341.768 31 M
341.768 33.17 L
S
GR
GS
[0.75 0 0 0.75 0 0] CT
0.149 GC
2 setlinecap
1 LJ
0.667 LW
N
355.324 31 M
355.324 33.17 L
S
GR
GS
[0.75 0 0 0.75 0 0] CT
0.149 GC
2 setlinecap
1 LJ
0.667 LW
N
365.838 31 M
365.838 33.17 L
S
GR
GS
[0.75 0 0 0.75 0 0] CT
0.149 GC
2 setlinecap
1 LJ
0.667 LW
N
374.429 31 M
374.429 33.17 L
S
GR
GS
[0.75 0 0 0.75 0 0] CT
0.149 GC
2 setlinecap
1 LJ
0.667 LW
N
381.693 31 M
381.693 33.17 L
S
GR
GS
[0.75 0 0 0.75 0 0] CT
0.149 GC
2 setlinecap
1 LJ
0.667 LW
N
387.985 31 M
387.985 33.17 L
S
GR
GS
[0.75 0 0 0.75 0 0] CT
0.149 GC
2 setlinecap
1 LJ
0.667 LW
N
393.535 31 M
393.535 33.17 L
S
GR
GS
[0.75 0 0 0.75 0 0] CT
0.149 GC
2 setlinecap
1 LJ
0.667 LW
N
398.5 31 M
398.5 33.17 L
S
GR
GS
[0.75 0 0 0.75 0 0] CT
0.149 GC
2 setlinecap
1 LJ
0.667 LW
N
431.162 31 M
431.162 33.17 L
S
GR
GS
[0.75 0 0 0.75 0 0] CT
0.149 GC
2 setlinecap
1 LJ
0.667 LW
N
450.268 31 M
450.268 33.17 L
S
GR
GS
[0.75 0 0 0.75 0 0] CT
0.149 GC
2 setlinecap
1 LJ
0.667 LW
N
463.824 31 M
463.824 33.17 L
S
GR
GS
[0.75 0 0 0.75 0 0] CT
0.149 GC
2 setlinecap
1 LJ
0.667 LW
N
474.338 31 M
474.338 33.17 L
S
GR
GS
[0.75 0 0 0.75 0 0] CT
0.149 GC
2 setlinecap
1 LJ
0.667 LW
N
482.929 31 M
482.929 33.17 L
S
GR
GS
[0.75 0 0 0.75 0 0] CT
0.149 GC
2 setlinecap
1 LJ
0.667 LW
N
490.193 31 M
490.193 33.17 L
S
GR
GS
[0.75 0 0 0.75 0 0] CT
0.149 GC
2 setlinecap
1 LJ
0.667 LW
N
496.485 31 M
496.485 33.17 L
S
GR
GS
[0.75 0 0 0.75 0 0] CT
0.149 GC
2 setlinecap
1 LJ
0.667 LW
N
502.035 31 M
502.035 33.17 L
S
GR
GS
[0.75 0 0 0.75 0 0] CT
0.149 GC
2 setlinecap
1 LJ
0.667 LW
N
507 31 M
507 33.17 L
S
GR
GS
[0.75 0 0 0.75 45 293.25] CT
0.149 GC
/Helvetica 13.333 F
GS
[1 0 0 1 0 0] CT
0 0 moveto 
1 -1 scale
(10) t 
GR
GR
GS
[0.75 0 0 0.75 56.25 288.75] CT
0.149 GC
/Helvetica 10.667 F
GS
[1 0 0 1 0 0] CT
0 0 moveto 
1 -1 scale
(-1) t 
GR
GR
GS
[0.75 0 0 0.75 128.25 293.25] CT
0.149 GC
/Helvetica 13.333 F
GS
[1 0 0 1 0 0] CT
0 0 moveto 
1 -1 scale
(10) t 
GR
GR
GS
[0.75 0 0 0.75 139.5 288.75] CT
0.149 GC
/Helvetica 10.667 F
GS
[1 0 0 1 0 0] CT
0 0 moveto 
1 -1 scale
(0) t 
GR
GR
GS
[0.75 0 0 0.75 209.25 293.25] CT
0.149 GC
/Helvetica 13.333 F
GS
[1 0 0 1 0 0] CT
0 0 moveto 
1 -1 scale
(10) t 
GR
GR
GS
[0.75 0 0 0.75 220.5 288.75] CT
0.149 GC
/Helvetica 10.667 F
GS
[1 0 0 1 0 0] CT
0 0 moveto 
1 -1 scale
(1) t 
GR
GR
GS
[0.75 0 0 0.75 291 293.25] CT
0.149 GC
/Helvetica 13.333 F
GS
[1 0 0 1 0 0] CT
0 0 moveto 
1 -1 scale
(10) t 
GR
GR
GS
[0.75 0 0 0.75 302.25 288.75] CT
0.149 GC
/Helvetica 10.667 F
GS
[1 0 0 1 0 0] CT
0 0 moveto 
1 -1 scale
(2) t 
GR
GR
GS
[0.75 0 0 0.75 372 293.25] CT
0.149 GC
/Helvetica 13.333 F
GS
[1 0 0 1 0 0] CT
0 0 moveto 
1 -1 scale
(10) t 
GR
GR
GS
[0.75 0 0 0.75 383.25 288.75] CT
0.149 GC
/Helvetica 10.667 F
GS
[1 0 0 1 0 0] CT
0 0 moveto 
1 -1 scale
(3) t 
GR
GR
GS
[0.75 0 0 0.75 141 312] CT
0.149 GC
/Helvetica 14.667 F
GS
[1 0 0 1 0 0] CT
0 0 moveto 
1 -1 scale
(ADCP fish targets [Counts/m) t 
GR
GR
GS
[0.75 0 0 0.75 285 306.75] CT
0.149 GC
/Helvetica 11.733 F
GS
[1 0 0 1 0 0] CT
0 0 moveto 
1 -1 scale
(3) t 
GR
GR
GS
[0.75 0 0 0.75 290.25 312] CT
0.149 GC
/Helvetica 14.667 F
GS
[1 0 0 1 0 0] CT
0 0 moveto 
1 -1 scale
(]) t 
GR
GR
GS
[0.75 0 0 0.75 0 0] CT
0.149 GC
2 setlinecap
1 LJ
0.667 LW
N
73 368 M
73 31 L
S
GR
GS
[0.75 0 0 0.75 0 0] CT
0.149 GC
2 setlinecap
1 LJ
0.667 LW
N
507 368 M
507 31 L
S
GR
GS
[0.75 0 0 0.75 0 0] CT
0.149 GC
2 setlinecap
1 LJ
0.667 LW
N
73 368 M
77.34 368 L
S
GR
GS
[0.75 0 0 0.75 0 0] CT
0.149 GC
2 setlinecap
1 LJ
0.667 LW
N
73 300.6 M
77.34 300.6 L
S
GR
GS
[0.75 0 0 0.75 0 0] CT
0.149 GC
2 setlinecap
1 LJ
0.667 LW
N
73 233.2 M
77.34 233.2 L
S
GR
GS
[0.75 0 0 0.75 0 0] CT
0.149 GC
2 setlinecap
1 LJ
0.667 LW
N
73 165.8 M
77.34 165.8 L
S
GR
GS
[0.75 0 0 0.75 0 0] CT
0.149 GC
2 setlinecap
1 LJ
0.667 LW
N
73 98.4 M
77.34 98.4 L
S
GR
GS
[0.75 0 0 0.75 0 0] CT
0.149 GC
2 setlinecap
1 LJ
0.667 LW
N
73 31 M
77.34 31 L
S
GR
GS
[0.75 0 0 0.75 0 0] CT
0.149 GC
2 setlinecap
1 LJ
0.667 LW
N
507 368 M
502.66 368 L
S
GR
GS
[0.75 0 0 0.75 0 0] CT
0.149 GC
2 setlinecap
1 LJ
0.667 LW
N
507 300.6 M
502.66 300.6 L
S
GR
GS
[0.75 0 0 0.75 0 0] CT
0.149 GC
2 setlinecap
1 LJ
0.667 LW
N
507 233.2 M
502.66 233.2 L
S
GR
GS
[0.75 0 0 0.75 0 0] CT
0.149 GC
2 setlinecap
1 LJ
0.667 LW
N
507 165.8 M
502.66 165.8 L
S
GR
GS
[0.75 0 0 0.75 0 0] CT
0.149 GC
2 setlinecap
1 LJ
0.667 LW
N
507 98.4 M
502.66 98.4 L
S
GR
GS
[0.75 0 0 0.75 0 0] CT
0.149 GC
2 setlinecap
1 LJ
0.667 LW
N
507 31 M
502.66 31 L
S
GR
GS
[0.75 0 0 0.75 0 0] CT
0.149 GC
2 setlinecap
1 LJ
0.667 LW
N
73 368 M
75.17 368 L
S
GR
GS
[0.75 0 0 0.75 0 0] CT
0.149 GC
2 setlinecap
1 LJ
0.667 LW
N
73 347.711 M
75.17 347.711 L
S
GR
GS
[0.75 0 0 0.75 0 0] CT
0.149 GC
2 setlinecap
1 LJ
0.667 LW
N
73 335.842 M
75.17 335.842 L
S
GR
GS
[0.75 0 0 0.75 0 0] CT
0.149 GC
2 setlinecap
1 LJ
0.667 LW
N
73 327.421 M
75.17 327.421 L
S
GR
GS
[0.75 0 0 0.75 0 0] CT
0.149 GC
2 setlinecap
1 LJ
0.667 LW
N
73 320.889 M
75.17 320.889 L
S
GR
GS
[0.75 0 0 0.75 0 0] CT
0.149 GC
2 setlinecap
1 LJ
0.667 LW
N
73 315.553 M
75.17 315.553 L
S
GR
GS
[0.75 0 0 0.75 0 0] CT
0.149 GC
2 setlinecap
1 LJ
0.667 LW
N
73 311.04 M
75.17 311.04 L
S
GR
GS
[0.75 0 0 0.75 0 0] CT
0.149 GC
2 setlinecap
1 LJ
0.667 LW
N
73 307.132 M
75.17 307.132 L
S
GR
GS
[0.75 0 0 0.75 0 0] CT
0.149 GC
2 setlinecap
1 LJ
0.667 LW
N
73 303.684 M
75.17 303.684 L
S
GR
GS
[0.75 0 0 0.75 0 0] CT
0.149 GC
2 setlinecap
1 LJ
0.667 LW
N
73 300.6 M
75.17 300.6 L
S
GR
GS
[0.75 0 0 0.75 0 0] CT
0.149 GC
2 setlinecap
1 LJ
0.667 LW
N
73 280.311 M
75.17 280.311 L
S
GR
GS
[0.75 0 0 0.75 0 0] CT
0.149 GC
2 setlinecap
1 LJ
0.667 LW
N
73 268.442 M
75.17 268.442 L
S
GR
GS
[0.75 0 0 0.75 0 0] CT
0.149 GC
2 setlinecap
1 LJ
0.667 LW
N
73 260.021 M
75.17 260.021 L
S
GR
GS
[0.75 0 0 0.75 0 0] CT
0.149 GC
2 setlinecap
1 LJ
0.667 LW
N
73 253.489 M
75.17 253.489 L
S
GR
GS
[0.75 0 0 0.75 0 0] CT
0.149 GC
2 setlinecap
1 LJ
0.667 LW
N
73 248.153 M
75.17 248.153 L
S
GR
GS
[0.75 0 0 0.75 0 0] CT
0.149 GC
2 setlinecap
1 LJ
0.667 LW
N
73 243.64 M
75.17 243.64 L
S
GR
GS
[0.75 0 0 0.75 0 0] CT
0.149 GC
2 setlinecap
1 LJ
0.667 LW
N
73 239.732 M
75.17 239.732 L
S
GR
GS
[0.75 0 0 0.75 0 0] CT
0.149 GC
2 setlinecap
1 LJ
0.667 LW
N
73 236.284 M
75.17 236.284 L
S
GR
GS
[0.75 0 0 0.75 0 0] CT
0.149 GC
2 setlinecap
1 LJ
0.667 LW
N
73 233.2 M
75.17 233.2 L
S
GR
GS
[0.75 0 0 0.75 0 0] CT
0.149 GC
2 setlinecap
1 LJ
0.667 LW
N
73 212.911 M
75.17 212.911 L
S
GR
GS
[0.75 0 0 0.75 0 0] CT
0.149 GC
2 setlinecap
1 LJ
0.667 LW
N
73 201.042 M
75.17 201.042 L
S
GR
GS
[0.75 0 0 0.75 0 0] CT
0.149 GC
2 setlinecap
1 LJ
0.667 LW
N
73 192.621 M
75.17 192.621 L
S
GR
GS
[0.75 0 0 0.75 0 0] CT
0.149 GC
2 setlinecap
1 LJ
0.667 LW
N
73 186.089 M
75.17 186.089 L
S
GR
GS
[0.75 0 0 0.75 0 0] CT
0.149 GC
2 setlinecap
1 LJ
0.667 LW
N
73 180.753 M
75.17 180.753 L
S
GR
GS
[0.75 0 0 0.75 0 0] CT
0.149 GC
2 setlinecap
1 LJ
0.667 LW
N
73 176.24 M
75.17 176.24 L
S
GR
GS
[0.75 0 0 0.75 0 0] CT
0.149 GC
2 setlinecap
1 LJ
0.667 LW
N
73 172.332 M
75.17 172.332 L
S
GR
GS
[0.75 0 0 0.75 0 0] CT
0.149 GC
2 setlinecap
1 LJ
0.667 LW
N
73 168.884 M
75.17 168.884 L
S
GR
GS
[0.75 0 0 0.75 0 0] CT
0.149 GC
2 setlinecap
1 LJ
0.667 LW
N
73 165.8 M
75.17 165.8 L
S
GR
GS
[0.75 0 0 0.75 0 0] CT
0.149 GC
2 setlinecap
1 LJ
0.667 LW
N
73 145.511 M
75.17 145.511 L
S
GR
GS
[0.75 0 0 0.75 0 0] CT
0.149 GC
2 setlinecap
1 LJ
0.667 LW
N
73 133.642 M
75.17 133.642 L
S
GR
GS
[0.75 0 0 0.75 0 0] CT
0.149 GC
2 setlinecap
1 LJ
0.667 LW
N
73 125.221 M
75.17 125.221 L
S
GR
GS
[0.75 0 0 0.75 0 0] CT
0.149 GC
2 setlinecap
1 LJ
0.667 LW
N
73 118.689 M
75.17 118.689 L
S
GR
GS
[0.75 0 0 0.75 0 0] CT
0.149 GC
2 setlinecap
1 LJ
0.667 LW
N
73 113.353 M
75.17 113.353 L
S
GR
GS
[0.75 0 0 0.75 0 0] CT
0.149 GC
2 setlinecap
1 LJ
0.667 LW
N
73 108.84 M
75.17 108.84 L
S
GR
GS
[0.75 0 0 0.75 0 0] CT
0.149 GC
2 setlinecap
1 LJ
0.667 LW
N
73 104.932 M
75.17 104.932 L
S
GR
GS
[0.75 0 0 0.75 0 0] CT
0.149 GC
2 setlinecap
1 LJ
0.667 LW
N
73 101.484 M
75.17 101.484 L
S
GR
GS
[0.75 0 0 0.75 0 0] CT
0.149 GC
2 setlinecap
1 LJ
0.667 LW
N
73 98.4 M
75.17 98.4 L
S
GR
GS
[0.75 0 0 0.75 0 0] CT
0.149 GC
2 setlinecap
1 LJ
0.667 LW
N
73 78.111 M
75.17 78.111 L
S
GR
GS
[0.75 0 0 0.75 0 0] CT
0.149 GC
2 setlinecap
1 LJ
0.667 LW
N
73 66.242 M
75.17 66.242 L
S
GR
GS
[0.75 0 0 0.75 0 0] CT
0.149 GC
2 setlinecap
1 LJ
0.667 LW
N
73 57.821 M
75.17 57.821 L
S
GR
GS
[0.75 0 0 0.75 0 0] CT
0.149 GC
2 setlinecap
1 LJ
0.667 LW
N
73 51.289 M
75.17 51.289 L
S
GR
GS
[0.75 0 0 0.75 0 0] CT
0.149 GC
2 setlinecap
1 LJ
0.667 LW
N
73 45.953 M
75.17 45.953 L
S
GR
GS
[0.75 0 0 0.75 0 0] CT
0.149 GC
2 setlinecap
1 LJ
0.667 LW
N
73 41.44 M
75.17 41.44 L
S
GR
GS
[0.75 0 0 0.75 0 0] CT
0.149 GC
2 setlinecap
1 LJ
0.667 LW
N
73 37.532 M
75.17 37.532 L
S
GR
GS
[0.75 0 0 0.75 0 0] CT
0.149 GC
2 setlinecap
1 LJ
0.667 LW
N
73 34.084 M
75.17 34.084 L
S
GR
GS
[0.75 0 0 0.75 0 0] CT
0.149 GC
2 setlinecap
1 LJ
0.667 LW
N
73 31 M
75.17 31 L
S
GR
GS
[0.75 0 0 0.75 0 0] CT
0.149 GC
2 setlinecap
1 LJ
0.667 LW
N
507 368 M
504.83 368 L
S
GR
GS
[0.75 0 0 0.75 0 0] CT
0.149 GC
2 setlinecap
1 LJ
0.667 LW
N
507 347.711 M
504.83 347.711 L
S
GR
GS
[0.75 0 0 0.75 0 0] CT
0.149 GC
2 setlinecap
1 LJ
0.667 LW
N
507 335.842 M
504.83 335.842 L
S
GR
GS
[0.75 0 0 0.75 0 0] CT
0.149 GC
2 setlinecap
1 LJ
0.667 LW
N
507 327.421 M
504.83 327.421 L
S
GR
GS
[0.75 0 0 0.75 0 0] CT
0.149 GC
2 setlinecap
1 LJ
0.667 LW
N
507 320.889 M
504.83 320.889 L
S
GR
GS
[0.75 0 0 0.75 0 0] CT
0.149 GC
2 setlinecap
1 LJ
0.667 LW
N
507 315.553 M
504.83 315.553 L
S
GR
GS
[0.75 0 0 0.75 0 0] CT
0.149 GC
2 setlinecap
1 LJ
0.667 LW
N
507 311.04 M
504.83 311.04 L
S
GR
GS
[0.75 0 0 0.75 0 0] CT
0.149 GC
2 setlinecap
1 LJ
0.667 LW
N
507 307.132 M
504.83 307.132 L
S
GR
GS
[0.75 0 0 0.75 0 0] CT
0.149 GC
2 setlinecap
1 LJ
0.667 LW
N
507 303.684 M
504.83 303.684 L
S
GR
GS
[0.75 0 0 0.75 0 0] CT
0.149 GC
2 setlinecap
1 LJ
0.667 LW
N
507 300.6 M
504.83 300.6 L
S
GR
GS
[0.75 0 0 0.75 0 0] CT
0.149 GC
2 setlinecap
1 LJ
0.667 LW
N
507 280.311 M
504.83 280.311 L
S
GR
GS
[0.75 0 0 0.75 0 0] CT
0.149 GC
2 setlinecap
1 LJ
0.667 LW
N
507 268.442 M
504.83 268.442 L
S
GR
GS
[0.75 0 0 0.75 0 0] CT
0.149 GC
2 setlinecap
1 LJ
0.667 LW
N
507 260.021 M
504.83 260.021 L
S
GR
GS
[0.75 0 0 0.75 0 0] CT
0.149 GC
2 setlinecap
1 LJ
0.667 LW
N
507 253.489 M
504.83 253.489 L
S
GR
GS
[0.75 0 0 0.75 0 0] CT
0.149 GC
2 setlinecap
1 LJ
0.667 LW
N
507 248.153 M
504.83 248.153 L
S
GR
GS
[0.75 0 0 0.75 0 0] CT
0.149 GC
2 setlinecap
1 LJ
0.667 LW
N
507 243.64 M
504.83 243.64 L
S
GR
GS
[0.75 0 0 0.75 0 0] CT
0.149 GC
2 setlinecap
1 LJ
0.667 LW
N
507 239.732 M
504.83 239.732 L
S
GR
GS
[0.75 0 0 0.75 0 0] CT
0.149 GC
2 setlinecap
1 LJ
0.667 LW
N
507 236.284 M
504.83 236.284 L
S
GR
GS
[0.75 0 0 0.75 0 0] CT
0.149 GC
2 setlinecap
1 LJ
0.667 LW
N
507 233.2 M
504.83 233.2 L
S
GR
GS
[0.75 0 0 0.75 0 0] CT
0.149 GC
2 setlinecap
1 LJ
0.667 LW
N
507 212.911 M
504.83 212.911 L
S
GR
GS
[0.75 0 0 0.75 0 0] CT
0.149 GC
2 setlinecap
1 LJ
0.667 LW
N
507 201.042 M
504.83 201.042 L
S
GR
GS
[0.75 0 0 0.75 0 0] CT
0.149 GC
2 setlinecap
1 LJ
0.667 LW
N
507 192.621 M
504.83 192.621 L
S
GR
GS
[0.75 0 0 0.75 0 0] CT
0.149 GC
2 setlinecap
1 LJ
0.667 LW
N
507 186.089 M
504.83 186.089 L
S
GR
GS
[0.75 0 0 0.75 0 0] CT
0.149 GC
2 setlinecap
1 LJ
0.667 LW
N
507 180.753 M
504.83 180.753 L
S
GR
GS
[0.75 0 0 0.75 0 0] CT
0.149 GC
2 setlinecap
1 LJ
0.667 LW
N
507 176.24 M
504.83 176.24 L
S
GR
GS
[0.75 0 0 0.75 0 0] CT
0.149 GC
2 setlinecap
1 LJ
0.667 LW
N
507 172.332 M
504.83 172.332 L
S
GR
GS
[0.75 0 0 0.75 0 0] CT
0.149 GC
2 setlinecap
1 LJ
0.667 LW
N
507 168.884 M
504.83 168.884 L
S
GR
GS
[0.75 0 0 0.75 0 0] CT
0.149 GC
2 setlinecap
1 LJ
0.667 LW
N
507 165.8 M
504.83 165.8 L
S
GR
GS
[0.75 0 0 0.75 0 0] CT
0.149 GC
2 setlinecap
1 LJ
0.667 LW
N
507 145.511 M
504.83 145.511 L
S
GR
GS
[0.75 0 0 0.75 0 0] CT
0.149 GC
2 setlinecap
1 LJ
0.667 LW
N
507 133.642 M
504.83 133.642 L
S
GR
GS
[0.75 0 0 0.75 0 0] CT
0.149 GC
2 setlinecap
1 LJ
0.667 LW
N
507 125.221 M
504.83 125.221 L
S
GR
GS
[0.75 0 0 0.75 0 0] CT
0.149 GC
2 setlinecap
1 LJ
0.667 LW
N
507 118.689 M
504.83 118.689 L
S
GR
GS
[0.75 0 0 0.75 0 0] CT
0.149 GC
2 setlinecap
1 LJ
0.667 LW
N
507 113.353 M
504.83 113.353 L
S
GR
GS
[0.75 0 0 0.75 0 0] CT
0.149 GC
2 setlinecap
1 LJ
0.667 LW
N
507 108.84 M
504.83 108.84 L
S
GR
GS
[0.75 0 0 0.75 0 0] CT
0.149 GC
2 setlinecap
1 LJ
0.667 LW
N
507 104.932 M
504.83 104.932 L
S
GR
GS
[0.75 0 0 0.75 0 0] CT
0.149 GC
2 setlinecap
1 LJ
0.667 LW
N
507 101.484 M
504.83 101.484 L
S
GR
GS
[0.75 0 0 0.75 0 0] CT
0.149 GC
2 setlinecap
1 LJ
0.667 LW
N
507 98.4 M
504.83 98.4 L
S
GR
GS
[0.75 0 0 0.75 0 0] CT
0.149 GC
2 setlinecap
1 LJ
0.667 LW
N
507 78.111 M
504.83 78.111 L
S
GR
GS
[0.75 0 0 0.75 0 0] CT
0.149 GC
2 setlinecap
1 LJ
0.667 LW
N
507 66.242 M
504.83 66.242 L
S
GR
GS
[0.75 0 0 0.75 0 0] CT
0.149 GC
2 setlinecap
1 LJ
0.667 LW
N
507 57.821 M
504.83 57.821 L
S
GR
GS
[0.75 0 0 0.75 0 0] CT
0.149 GC
2 setlinecap
1 LJ
0.667 LW
N
507 51.289 M
504.83 51.289 L
S
GR
GS
[0.75 0 0 0.75 0 0] CT
0.149 GC
2 setlinecap
1 LJ
0.667 LW
N
507 45.953 M
504.83 45.953 L
S
GR
GS
[0.75 0 0 0.75 0 0] CT
0.149 GC
2 setlinecap
1 LJ
0.667 LW
N
507 41.44 M
504.83 41.44 L
S
GR
GS
[0.75 0 0 0.75 0 0] CT
0.149 GC
2 setlinecap
1 LJ
0.667 LW
N
507 37.532 M
504.83 37.532 L
S
GR
GS
[0.75 0 0 0.75 0 0] CT
0.149 GC
2 setlinecap
1 LJ
0.667 LW
N
507 34.084 M
504.83 34.084 L
S
GR
GS
[0.75 0 0 0.75 0 0] CT
0.149 GC
2 setlinecap
1 LJ
0.667 LW
N
507 31 M
504.83 31 L
S
GR
GS
[0.75 0 0 0.75 32.25 282] CT
0.149 GC
/Helvetica 13.333 F
GS
[1 0 0 1 0 0] CT
0 0 moveto 
1 -1 scale
(10) t 
GR
GR
GS
[0.75 0 0 0.75 43.5 277.5] CT
0.149 GC
/Helvetica 10.667 F
GS
[1 0 0 1 0 0] CT
0 0 moveto 
1 -1 scale
(-1) t 
GR
GR
GS
[0.75 0 0 0.75 34.5 231.75] CT
0.149 GC
/Helvetica 13.333 F
GS
[1 0 0 1 0 0] CT
0 0 moveto 
1 -1 scale
(10) t 
GR
GR
GS
[0.75 0 0 0.75 45.75 227.25] CT
0.149 GC
/Helvetica 10.667 F
GS
[1 0 0 1 0 0] CT
0 0 moveto 
1 -1 scale
(0) t 
GR
GR
GS
[0.75 0 0 0.75 34.5 180.75] CT
0.149 GC
/Helvetica 13.333 F
GS
[1 0 0 1 0 0] CT
0 0 moveto 
1 -1 scale
(10) t 
GR
GR
GS
[0.75 0 0 0.75 45.75 176.25] CT
0.149 GC
/Helvetica 10.667 F
GS
[1 0 0 1 0 0] CT
0 0 moveto 
1 -1 scale
(1) t 
GR
GR
GS
[0.75 0 0 0.75 34.5 130.5] CT
0.149 GC
/Helvetica 13.333 F
GS
[1 0 0 1 0 0] CT
0 0 moveto 
1 -1 scale
(10) t 
GR
GR
GS
[0.75 0 0 0.75 45.75 126] CT
0.149 GC
/Helvetica 10.667 F
GS
[1 0 0 1 0 0] CT
0 0 moveto 
1 -1 scale
(2) t 
GR
GR
GS
[0.75 0 0 0.75 34.5 79.5] CT
0.149 GC
/Helvetica 13.333 F
GS
[1 0 0 1 0 0] CT
0 0 moveto 
1 -1 scale
(10) t 
GR
GR
GS
[0.75 0 0 0.75 45.75 75] CT
0.149 GC
/Helvetica 10.667 F
GS
[1 0 0 1 0 0] CT
0 0 moveto 
1 -1 scale
(3) t 
GR
GR
GS
[0.75 0 0 0.75 34.5 29.25] CT
0.149 GC
/Helvetica 13.333 F
GS
[1 0 0 1 0 0] CT
0 0 moveto 
1 -1 scale
(10) t 
GR
GR
GS
[0.75 0 0 0.75 45.75 24.75] CT
0.149 GC
/Helvetica 10.667 F
GS
[1 0 0 1 0 0] CT
0 0 moveto 
1 -1 scale
(4) t 
GR
GR
GS
[0 -0.75 0.75 0 26.25 237] CT
0.149 GC
/Helvetica 14.667 F
GS
[1 0 0 1 0 0] CT
0 0 moveto 
1 -1 scale
(Split-beam fish counts [Counts/m) t 
GR
GR
GS
[0 -0.75 0.75 0 21 71.25] CT
0.149 GC
/Helvetica 11.733 F
GS
[1 0 0 1 0 0] CT
0 0 moveto 
1 -1 scale
(3) t 
GR
GR
GS
[0 -0.75 0.75 0 26.25 66] CT
0.149 GC
/Helvetica 14.667 F
GS
[1 0 0 1 0 0] CT
0 0 moveto 
1 -1 scale
(]) t 
GR
GR
GS
[0.75 0 0 0.75 217.50021 21.1875] CT
/Helvetica-Bold 14.667 F
GS
[1 0 0 1 0 0] CT
-118 -4 moveto 
1 -1 scale
(Depth-Integrated Fish Detections) t 
GR
GR
GS
[0.75 0 0 0.75 140.96123 197.50067] CT
0 0 1 RC
10.0 ML
N
0 -4 M
0 4 L
-4 0 M
4 0 L
-2.828 -2.828 M
2.828 2.828 L
-2.828 2.828 M
2.828 -2.828 L
S
GR
GS
[0.75 0 0 0.75 335.56116 51.85715] CT
0 0 1 RC
10.0 ML
N
0 -4 M
0 4 L
-4 0 M
4 0 L
-2.828 -2.828 M
2.828 2.828 L
-2.828 2.828 M
2.828 -2.828 L
S
GR
GS
[0.75 0 0 0.75 317.42049 46.3622] CT
0 0 1 RC
10.0 ML
N
0 -4 M
0 4 L
-4 0 M
4 0 L
-2.828 -2.828 M
2.828 2.828 L
-2.828 2.828 M
2.828 -2.828 L
S
GR
GS
[0.75 0 0 0.75 265.57967 99.33159] CT
0 0 1 RC
10.0 ML
N
0 -4 M
0 4 L
-4 0 M
4 0 L
-2.828 -2.828 M
2.828 2.828 L
-2.828 2.828 M
2.828 -2.828 L
S
GR
GS
[0.75 0 0 0.75 263.61763 133.66607] CT
0 0 1 RC
10.0 ML
N
0 -4 M
0 4 L
-4 0 M
4 0 L
-2.828 -2.828 M
2.828 2.828 L
-2.828 2.828 M
2.828 -2.828 L
S
GR
GS
[0.75 0 0 0.75 110.87167 185.19722] CT
0 0 1 RC
10.0 ML
N
0 -4 M
0 4 L
-4 0 M
4 0 L
-2.828 -2.828 M
2.828 2.828 L
-2.828 2.828 M
2.828 -2.828 L
S
GR
GS
[0.75 0 0 0.75 231.08588 213.63469] CT
0 0 1 RC
10.0 ML
N
0 -4 M
0 4 L
-4 0 M
4 0 L
-2.828 -2.828 M
2.828 2.828 L
-2.828 2.828 M
2.828 -2.828 L
S
GR
GS
[0.75 0 0 0.75 246.2355 105.89687] CT
0 0 1 RC
10.0 ML
N
0 -4 M
0 4 L
-4 0 M
4 0 L
-2.828 -2.828 M
2.828 2.828 L
-2.828 2.828 M
2.828 -2.828 L
S
GR
GS
[0.75 0 0 0.75 316.95303 79.15962] CT
0 0 1 RC
10.0 ML
N
0 -4 M
0 4 L
-4 0 M
4 0 L
-2.828 -2.828 M
2.828 2.828 L
-2.828 2.828 M
2.828 -2.828 L
S
GR
GS
[0.75 0 0 0.75 238.3355 126.24865] CT
0 0 1 RC
10.0 ML
N
0 -4 M
0 4 L
-4 0 M
4 0 L
-2.828 -2.828 M
2.828 2.828 L
-2.828 2.828 M
2.828 -2.828 L
S
GR
GS
[0.75 0 0 0.75 175.91311 199.72192] CT
0 0 1 RC
10.0 ML
N
0 -4 M
0 4 L
-4 0 M
4 0 L
-2.828 -2.828 M
2.828 2.828 L
-2.828 2.828 M
2.828 -2.828 L
S
GR
GS
[0.75 0 0 0.75 104.90761 165.55191] CT
0 0 1 RC
10.0 ML
N
0 -4 M
0 4 L
-4 0 M
4 0 L
-2.828 -2.828 M
2.828 2.828 L
-2.828 2.828 M
2.828 -2.828 L
S
GR
GS
[0.75 0 0 0.75 217.96573 169.37327] CT
0 0 1 RC
10.0 ML
N
0 -4 M
0 4 L
-4 0 M
4 0 L
-2.828 -2.828 M
2.828 2.828 L
-2.828 2.828 M
2.828 -2.828 L
S
GR
GS
[0.75 0 0 0.75 169.5182 161.82042] CT
0 0 1 RC
10.0 ML
N
0 -4 M
0 4 L
-4 0 M
4 0 L
-2.828 -2.828 M
2.828 2.828 L
-2.828 2.828 M
2.828 -2.828 L
S
GR
GS
[0.75 0 0 0.75 223.28989 169.37327] CT
0 0 1 RC
10.0 ML
N
0 -4 M
0 4 L
-4 0 M
4 0 L
-2.828 -2.828 M
2.828 2.828 L
-2.828 2.828 M
2.828 -2.828 L
S
GR
GS
[0.75 0 0 0.75 112.34775 174.84394] CT
0 0 1 RC
10.0 ML
N
0 -4 M
0 4 L
-4 0 M
4 0 L
-2.828 -2.828 M
2.828 2.828 L
-2.828 2.828 M
2.828 -2.828 L
S
GR
GS
[0.75 0 0 0.75 232.29282 168.31189] CT
0 0 1 RC
10.0 ML
N
0 -4 M
0 4 L
-4 0 M
4 0 L
-2.828 -2.828 M
2.828 2.828 L
-2.828 2.828 M
2.828 -2.828 L
S
GR
GS
[0.75 0 0 0.75 169.5182 180.76897] CT
0 0 1 RC
10.0 ML
N
0 -4 M
0 4 L
-4 0 M
4 0 L
-2.828 -2.828 M
2.828 2.828 L
-2.828 2.828 M
2.828 -2.828 L
S
GR
GS
[0.75 0 0 0.75 253.90821 108.95364] CT
0 0 1 RC
10.0 ML
N
0 -4 M
0 4 L
-4 0 M
4 0 L
-2.828 -2.828 M
2.828 2.828 L
-2.828 2.828 M
2.828 -2.828 L
S
GR
GS
[0.75 0 0 0.75 258.52457 127.28994] CT
0 0 1 RC
10.0 ML
N
0 -4 M
0 4 L
-4 0 M
4 0 L
-2.828 -2.828 M
2.828 2.828 L
-2.828 2.828 M
2.828 -2.828 L
S
GR
GS
[0.75 0 0 0.75 140.96123 209.50925] CT
0 0 1 RC
10.0 ML
N
0 -4 M
0 4 L
-4 0 M
4 0 L
-2.828 -2.828 M
2.828 2.828 L
-2.828 2.828 M
2.828 -2.828 L
S
GR
GS
[0.75 0 0 0.75 276.72837 119.70209] CT
0 0 1 RC
10.0 ML
N
0 -4 M
0 4 L
-4 0 M
4 0 L
-2.828 -2.828 M
2.828 2.828 L
-2.828 2.828 M
2.828 -2.828 L
S
GR
GS
[0.75 0 0 0.75 257.85164 164.54472] CT
0 0 1 RC
10.0 ML
N
0 -4 M
0 4 L
-4 0 M
4 0 L
-2.828 -2.828 M
2.828 2.828 L
-2.828 2.828 M
2.828 -2.828 L
S
GR
GS
[0.75 0 0 0.75 244.56125 202.12248] CT
0 0 1 RC
10.0 ML
N
0 -4 M
0 4 L
-4 0 M
4 0 L
-2.828 -2.828 M
2.828 2.828 L
-2.828 2.828 M
2.828 -2.828 L
S
GR
GS
[0.75 0 0 0.75 249.92008 81.15528] CT
0 0 1 RC
10.0 ML
N
0 -4 M
0 4 L
-4 0 M
4 0 L
-2.828 -2.828 M
2.828 2.828 L
-2.828 2.828 M
2.828 -2.828 L
S
GR
GS
[0.75 0 0 0.75 217.47414 118.52561] CT
0 0 1 RC
10.0 ML
N
0 -4 M
0 4 L
-4 0 M
4 0 L
-2.828 -2.828 M
2.828 2.828 L
-2.828 2.828 M
2.828 -2.828 L
S
GR
GS
[0.75 0 0 0.75 229.35297 126.76595] CT
0 0 1 RC
10.0 ML
N
0 -4 M
0 4 L
-4 0 M
4 0 L
-2.828 -2.828 M
2.828 2.828 L
-2.828 2.828 M
2.828 -2.828 L
S
GR
GS
[0.75 0 0 0.75 349.78574 50.27257] CT
0 0 1 RC
10.0 ML
N
0 -4 M
0 4 L
-4 0 M
4 0 L
-2.828 -2.828 M
2.828 2.828 L
-2.828 2.828 M
2.828 -2.828 L
S
GR
GS
[0.75 0 0 0.75 349.75328 63.39095] CT
0 0 1 RC
10.0 ML
N
0 -4 M
0 4 L
-4 0 M
4 0 L
-2.828 -2.828 M
2.828 2.828 L
-2.828 2.828 M
2.828 -2.828 L
S
GR
GS
[0.75 0 0 0.75 203.40269 97.49625] CT
0 0 1 RC
10.0 ML
N
0 -4 M
0 4 L
-4 0 M
4 0 L
-2.828 -2.828 M
2.828 2.828 L
-2.828 2.828 M
2.828 -2.828 L
S
GR
GS
[0.75 0 0 0.75 167.81394 165.24493] CT
0 0 1 RC
10.0 ML
N
0 -4 M
0 4 L
-4 0 M
4 0 L
-2.828 -2.828 M
2.828 2.828 L
-2.828 2.828 M
2.828 -2.828 L
S
GR
GS
[0.75 0 0 0.75 233.63107 126.93594] CT
0 0 1 RC
10.0 ML
N
0 -4 M
0 4 L
-4 0 M
4 0 L
-2.828 -2.828 M
2.828 2.828 L
-2.828 2.828 M
2.828 -2.828 L
S
GR
GS
[0.75 0 0 0.75 310.75497 73.26535] CT
0 0 1 RC
10.0 ML
N
0 -4 M
0 4 L
-4 0 M
4 0 L
-2.828 -2.828 M
2.828 2.828 L
-2.828 2.828 M
2.828 -2.828 L
S
GR
GS
[0.75 0 0 0.75 310.45468 91.53234] CT
0 0 1 RC
10.0 ML
N
0 -4 M
0 4 L
-4 0 M
4 0 L
-2.828 -2.828 M
2.828 2.828 L
-2.828 2.828 M
2.828 -2.828 L
S
GR
GS
[0.75 0 0 0.75 169.5182 169.37327] CT
0 0 1 RC
10.0 ML
N
0 -4 M
0 4 L
-4 0 M
4 0 L
-2.828 -2.828 M
2.828 2.828 L
-2.828 2.828 M
2.828 -2.828 L
S
GR
GS
[0.75 0 0 0.75 189.70985 119.10513] CT
0 0 1 RC
10.0 ML
N
0 -4 M
0 4 L
-4 0 M
4 0 L
-2.828 -2.828 M
2.828 2.828 L
-2.828 2.828 M
2.828 -2.828 L
S
GR
GS
[0.75 0 0 0.75 146.39128 124.58862] CT
0 0 1 RC
10.0 ML
N
0 -4 M
0 4 L
-4 0 M
4 0 L
-2.828 -2.828 M
2.828 2.828 L
-2.828 2.828 M
2.828 -2.828 L
S
GR
GS
[0.75 0 0 0.75 104.90761 152.66787] CT
0 0 1 RC
10.0 ML
N
0 -4 M
0 4 L
-4 0 M
4 0 L
-2.828 -2.828 M
2.828 2.828 L
-2.828 2.828 M
2.828 -2.828 L
S
GR
GS
[0.75 0 0 0.75 0 0] CT
0 0.447 0.741 RC
1 LJ
2.667 LW
N
187.948 239.84 M
200.239 232.435 L
130.901 273.015 L
S
GR
GS
[0.75 0 0 0.75 0 0] CT
0 0.447 0.741 RC
1 LJ
2.667 LW
N
447.415 79.672 M
423.227 94.694 L
354.106 137.609 L
351.49 139.232 L
147.829 263.451 L
220.692 220.004 L
149.797 262.32 L
S
GR
GS
[0.75 0 0 0.75 0 0] CT
0 0.447 0.741 RC
1 LJ
2.667 LW
N
308.115 166.128 M
320.843 158.24 L
328.314 153.608 L
422.604 95.081 L
317.781 160.139 L
234.551 211.525 L
S
GR
GS
[0.75 0 0 0.75 0 0] CT
0 0.447 0.741 RC
1 LJ
2.667 LW
N
344.879 143.334 M
139.877 267.982 L
292.505 175.793 L
290.621 176.959 L
149.797 262.32 L
226.024 216.746 L
S
GR
GS
[0.75 0 0 0.75 0 0] CT
0 0.447 0.741 RC
1 LJ
2.667 LW
N
297.72 172.566 M
149.797 262.32 L
160.884 255.887 L
160.884 255.887 L
S
GR
GS
[0.75 0 0 0.75 0 0] CT
0 0.447 0.741 RC
1 LJ
2.667 LW
N
187.948 239.84 M
217.783 221.779 L
S
GR
GS
[0.75 0 0 0.75 0 0] CT
0 0.447 0.741 RC
1 LJ
2.667 LW
N
257.95 197.138 M
309.724 165.131 L
S
GR
GS
[0.75 0 0 0.75 0 0] CT
0 0.447 0.741 RC
1 LJ
2.667 LW
N
226.024 216.746 M
205.083 229.502 L
130.901 273.015 L
252.946 200.22 L
S
GR
GS
[0.75 0 0 0.75 0 0] CT
0 0.447 0.741 RC
1 LJ
2.667 LW
N
160.884 255.887 M
338.544 147.264 L
344.699 143.445 L
308.115 166.128 L
S
GR
GS
[0.75 0 0 0.75 0 0] CT
0 0.447 0.741 RC
1 LJ
2.667 LW
N
368.971 128.383 M
343.802 144.002 L
326.082 154.993 L
290.621 176.959 L
S
GR
GS
[0.75 0 0 0.75 0 0] CT
0 0.447 0.741 RC
1 LJ
2.667 LW
N
308.115 166.128 M
333.227 150.562 L
289.966 177.365 L
274.044 187.207 L
S
GR
GS
[0.75 0 0 0.75 0 0] CT
0 0.447 0.741 RC
1 LJ
2.667 LW
N
226.024 216.746 M
226.024 216.746 L
S
GR
GS
[0.75 0 0 0.75 0 0] CT
0 0.447 0.741 RC
1 LJ
2.667 LW
N
305.804 167.56 M
466.381 67.891 L
466.338 67.918 L
271.204 188.962 L
S
GR
GS
[0.75 0 0 0.75 0 0] CT
0 0.447 0.741 RC
1 LJ
2.667 LW
N
223.752 218.135 M
311.508 164.026 L
S
GR
GS
[0.75 0 0 0.75 0 0] CT
0 0.447 0.741 RC
1 LJ
2.667 LW
N
301.282 170.36 M
226.024 216.746 L
S
GR
GS
[0.75 0 0 0.75 0 0] CT
0 0.447 0.741 RC
1 LJ
2.667 LW
N
414.34 100.213 M
413.94 100.462 L
300.986 170.543 L
188.838 239.306 L
S
GR
GS
[0.75 0 0 0.75 0 0] CT
0 0.447 0.741 RC
1 LJ
2.667 LW
N
205.083 229.502 M
205.083 229.502 L
226.024 216.746 L
226.024 216.746 L
S
GR
GS
[0.75 0 0 0.75 0 0] CT
0 0.447 0.741 RC
1 LJ
2.667 LW
N
252.946 200.22 M
195.188 235.485 L
139.877 267.982 L
139.877 267.982 L
139.877 267.982 L
S
GR
GS
[0.75 0 0 0.75 140.96123 240.22039] CT
1 0 0 RC
10.0 ML
N
3.5 -0.5 M
3.5 -2.709 1.709 -4.5 -0.5 -4.5 C
-2.709 -4.5 -4.5 -2.709 -4.5 -0.5 C
-4.5 1.709 -2.709 3.5 -0.5 3.5 C
1.709 3.5 3.5 1.709 3.5 -0.5 C
S
GR
GS
[0.75 0 0 0.75 335.56116 90.28241] CT
1 0 0 RC
10.0 ML
N
3.5 -0.5 M
3.5 -2.709 1.709 -4.5 -0.5 -4.5 C
-2.709 -4.5 -4.5 -2.709 -4.5 -0.5 C
-4.5 1.709 -2.709 3.5 -0.5 3.5 C
1.709 3.5 3.5 1.709 3.5 -0.5 C
S
GR
GS
[0.75 0 0 0.75 317.42049 91.7928] CT
1 0 0 RC
10.0 ML
N
3.5 -0.5 M
3.5 -2.709 1.709 -4.5 -0.5 -4.5 C
-2.709 -4.5 -4.5 -2.709 -4.5 -0.5 C
-4.5 1.709 -2.709 3.5 -0.5 3.5 C
1.709 3.5 3.5 1.709 3.5 -0.5 C
S
GR
GS
[0.75 0 0 0.75 265.57967 137.87805] CT
1 0 0 RC
10.0 ML
N
3.5 -0.5 M
3.5 -2.709 1.709 -4.5 -0.5 -4.5 C
-2.709 -4.5 -4.5 -2.709 -4.5 -0.5 C
-4.5 1.709 -2.709 3.5 -0.5 3.5 C
1.709 3.5 3.5 1.709 3.5 -0.5 C
S
GR
GS
[0.75 0 0 0.75 263.61763 172.70408] CT
1 0 0 RC
10.0 ML
N
3.5 -0.5 M
3.5 -2.709 1.709 -4.5 -0.5 -4.5 C
-2.709 -4.5 -4.5 -2.709 -4.5 -0.5 C
-4.5 1.709 -2.709 3.5 -0.5 3.5 C
1.709 3.5 3.5 1.709 3.5 -0.5 C
S
GR
GS
[0.75 0 0 0.75 110.87167 222.03104] CT
1 0 0 RC
10.0 ML
N
3.5 -0.5 M
3.5 -2.709 1.709 -4.5 -0.5 -4.5 C
-2.709 -4.5 -4.5 -2.709 -4.5 -0.5 C
-4.5 1.709 -2.709 3.5 -0.5 3.5 C
1.709 3.5 3.5 1.709 3.5 -0.5 C
S
GR
GS
[0.75 0 0 0.75 231.08588 256.35439] CT
1 0 0 RC
10.0 ML
N
3.5 -0.5 M
3.5 -2.709 1.709 -4.5 -0.5 -4.5 C
-2.709 -4.5 -4.5 -2.709 -4.5 -0.5 C
-4.5 1.709 -2.709 3.5 -0.5 3.5 C
1.709 3.5 3.5 1.709 3.5 -0.5 C
S
GR
GS
[0.75 0 0 0.75 246.2355 145.73207] CT
1 0 0 RC
10.0 ML
N
3.5 -0.5 M
3.5 -2.709 1.709 -4.5 -0.5 -4.5 C
-2.709 -4.5 -4.5 -2.709 -4.5 -0.5 C
-4.5 1.709 -2.709 3.5 -0.5 3.5 C
1.709 3.5 3.5 1.709 3.5 -0.5 C
S
GR
GS
[0.75 0 0 0.75 316.95303 128.19587] CT
1 0 0 RC
10.0 ML
N
3.5 -0.5 M
3.5 -2.709 1.709 -4.5 -0.5 -4.5 C
-2.709 -4.5 -4.5 -2.709 -4.5 -0.5 C
-4.5 1.709 -2.709 3.5 -0.5 3.5 C
1.709 3.5 3.5 1.709 3.5 -0.5 C
S
GR
GS
[0.75 0 0 0.75 238.3355 163.82619] CT
1 0 0 RC
10.0 ML
N
3.5 -0.5 M
3.5 -2.709 1.709 -4.5 -0.5 -4.5 C
-2.709 -4.5 -4.5 -2.709 -4.5 -0.5 C
-4.5 1.709 -2.709 3.5 -0.5 3.5 C
1.709 3.5 3.5 1.709 3.5 -0.5 C
S
GR
GS
[0.75 0 0 0.75 175.91311 235.05485] CT
1 0 0 RC
10.0 ML
N
3.5 -0.5 M
3.5 -2.709 1.709 -4.5 -0.5 -4.5 C
-2.709 -4.5 -4.5 -2.709 -4.5 -0.5 C
-4.5 1.709 -2.709 3.5 -0.5 3.5 C
1.709 3.5 3.5 1.709 3.5 -0.5 C
S
GR
GS
[0.75 0 0 0.75 104.90761 204.88744] CT
1 0 0 RC
10.0 ML
N
3.5 -0.5 M
3.5 -2.709 1.709 -4.5 -0.5 -4.5 C
-2.709 -4.5 -4.5 -2.709 -4.5 -0.5 C
-4.5 1.709 -2.709 3.5 -0.5 3.5 C
1.709 3.5 3.5 1.709 3.5 -0.5 C
S
GR
GS
[0.75 0 0 0.75 217.96573 204.70619] CT
1 0 0 RC
10.0 ML
N
3.5 -0.5 M
3.5 -2.709 1.709 -4.5 -0.5 -4.5 C
-2.709 -4.5 -4.5 -2.709 -4.5 -0.5 C
-4.5 1.709 -2.709 3.5 -0.5 3.5 C
1.709 3.5 3.5 1.709 3.5 -0.5 C
S
GR
GS
[0.75 0 0 0.75 169.5182 199.24576] CT
1 0 0 RC
10.0 ML
N
3.5 -0.5 M
3.5 -2.709 1.709 -4.5 -0.5 -4.5 C
-2.709 -4.5 -4.5 -2.709 -4.5 -0.5 C
-4.5 1.709 -2.709 3.5 -0.5 3.5 C
1.709 3.5 3.5 1.709 3.5 -0.5 C
S
GR
GS
[0.75 0 0 0.75 223.28989 204.70619] CT
1 0 0 RC
10.0 ML
N
3.5 -0.5 M
3.5 -2.709 1.709 -4.5 -0.5 -4.5 C
-2.709 -4.5 -4.5 -2.709 -4.5 -0.5 C
-4.5 1.709 -2.709 3.5 -0.5 3.5 C
1.709 3.5 3.5 1.709 3.5 -0.5 C
S
GR
GS
[0.75 0 0 0.75 112.34775 216.7161] CT
1 0 0 RC
10.0 ML
N
3.5 -0.5 M
3.5 -2.709 1.709 -4.5 -0.5 -4.5 C
-2.709 -4.5 -4.5 -2.709 -4.5 -0.5 C
-4.5 1.709 -2.709 3.5 -0.5 3.5 C
1.709 3.5 3.5 1.709 3.5 -0.5 C
S
GR
GS
[0.75 0 0 0.75 232.29282 207.53174] CT
1 0 0 RC
10.0 ML
N
3.5 -0.5 M
3.5 -2.709 1.709 -4.5 -0.5 -4.5 C
-2.709 -4.5 -4.5 -2.709 -4.5 -0.5 C
-4.5 1.709 -2.709 3.5 -0.5 3.5 C
1.709 3.5 3.5 1.709 3.5 -0.5 C
S
GR
GS
[0.75 0 0 0.75 169.5182 225.00332] CT
1 0 0 RC
10.0 ML
N
3.5 -0.5 M
3.5 -2.709 1.709 -4.5 -0.5 -4.5 C
-2.709 -4.5 -4.5 -2.709 -4.5 -0.5 C
-4.5 1.709 -2.709 3.5 -0.5 3.5 C
1.709 3.5 3.5 1.709 3.5 -0.5 C
S
GR
GS
[0.75 0 0 0.75 253.90821 153.12681] CT
1 0 0 RC
10.0 ML
N
3.5 -0.5 M
3.5 -2.709 1.709 -4.5 -0.5 -4.5 C
-2.709 -4.5 -4.5 -2.709 -4.5 -0.5 C
-4.5 1.709 -2.709 3.5 -0.5 3.5 C
1.709 3.5 3.5 1.709 3.5 -0.5 C
S
GR
GS
[0.75 0 0 0.75 258.52457 180.58772] CT
1 0 0 RC
10.0 ML
N
3.5 -0.5 M
3.5 -2.709 1.709 -4.5 -0.5 -4.5 C
-2.709 -4.5 -4.5 -2.709 -4.5 -0.5 C
-4.5 1.709 -2.709 3.5 -0.5 3.5 C
1.709 3.5 3.5 1.709 3.5 -0.5 C
S
GR
GS
[0.75 0 0 0.75 140.96123 244.84218] CT
1 0 0 RC
10.0 ML
N
3.5 -0.5 M
3.5 -2.709 1.709 -4.5 -0.5 -4.5 C
-2.709 -4.5 -4.5 -2.709 -4.5 -0.5 C
-4.5 1.709 -2.709 3.5 -0.5 3.5 C
1.709 3.5 3.5 1.709 3.5 -0.5 C
S
GR
GS
[0.75 0 0 0.75 276.72837 158.00947] CT
1 0 0 RC
10.0 ML
N
3.5 -0.5 M
3.5 -2.709 1.709 -4.5 -0.5 -4.5 C
-2.709 -4.5 -4.5 -2.709 -4.5 -0.5 C
-4.5 1.709 -2.709 3.5 -0.5 3.5 C
1.709 3.5 3.5 1.709 3.5 -0.5 C
S
GR
GS
[0.75 0 0 0.75 257.85164 204.12984] CT
1 0 0 RC
10.0 ML
N
3.5 -0.5 M
3.5 -2.709 1.709 -4.5 -0.5 -4.5 C
-2.709 -4.5 -4.5 -2.709 -4.5 -0.5 C
-4.5 1.709 -2.709 3.5 -0.5 3.5 C
1.709 3.5 3.5 1.709 3.5 -0.5 C
S
GR
GS
[0.75 0 0 0.75 244.56125 244.84218] CT
1 0 0 RC
10.0 ML
N
3.5 -0.5 M
3.5 -2.709 1.709 -4.5 -0.5 -4.5 C
-2.709 -4.5 -4.5 -2.709 -4.5 -0.5 C
-4.5 1.709 -2.709 3.5 -0.5 3.5 C
1.709 3.5 3.5 1.709 3.5 -0.5 C
S
GR
GS
[0.75 0 0 0.75 249.92008 119.8487] CT
1 0 0 RC
10.0 ML
N
3.5 -0.5 M
3.5 -2.709 1.709 -4.5 -0.5 -4.5 C
-2.709 -4.5 -4.5 -2.709 -4.5 -0.5 C
-4.5 1.709 -2.709 3.5 -0.5 3.5 C
1.709 3.5 3.5 1.709 3.5 -0.5 C
S
GR
GS
[0.75 0 0 0.75 217.47414 158.84569] CT
1 0 0 RC
10.0 ML
N
3.5 -0.5 M
3.5 -2.709 1.709 -4.5 -0.5 -4.5 C
-2.709 -4.5 -4.5 -2.709 -4.5 -0.5 C
-4.5 1.709 -2.709 3.5 -0.5 3.5 C
1.709 3.5 3.5 1.709 3.5 -0.5 C
S
GR
GS
[0.75 0 0 0.75 229.35297 164.75298] CT
1 0 0 RC
10.0 ML
N
3.5 -0.5 M
3.5 -2.709 1.709 -4.5 -0.5 -4.5 C
-2.709 -4.5 -4.5 -2.709 -4.5 -0.5 C
-4.5 1.709 -2.709 3.5 -0.5 3.5 C
1.709 3.5 3.5 1.709 3.5 -0.5 C
S
GR
GS
[0.75 0 0 0.75 349.78574 90.34062] CT
1 0 0 RC
10.0 ML
N
3.5 -0.5 M
3.5 -2.709 1.709 -4.5 -0.5 -4.5 C
-2.709 -4.5 -4.5 -2.709 -4.5 -0.5 C
-4.5 1.709 -2.709 3.5 -0.5 3.5 C
1.709 3.5 3.5 1.709 3.5 -0.5 C
S
GR
GS
[0.75 0 0 0.75 349.75328 103.63688] CT
1 0 0 RC
10.0 ML
N
3.5 -0.5 M
3.5 -2.709 1.709 -4.5 -0.5 -4.5 C
-2.709 -4.5 -4.5 -2.709 -4.5 -0.5 C
-4.5 1.709 -2.709 3.5 -0.5 3.5 C
1.709 3.5 3.5 1.709 3.5 -0.5 C
S
GR
GS
[0.75 0 0 0.75 203.40269 137.8148] CT
1 0 0 RC
10.0 ML
N
3.5 -0.5 M
3.5 -2.709 1.709 -4.5 -0.5 -4.5 C
-2.709 -4.5 -4.5 -2.709 -4.5 -0.5 C
-4.5 1.709 -2.709 3.5 -0.5 3.5 C
1.709 3.5 3.5 1.709 3.5 -0.5 C
S
GR
GS
[0.75 0 0 0.75 167.81394 202.21259] CT
1 0 0 RC
10.0 ML
N
3.5 -0.5 M
3.5 -2.709 1.709 -4.5 -0.5 -4.5 C
-2.709 -4.5 -4.5 -2.709 -4.5 -0.5 C
-4.5 1.709 -2.709 3.5 -0.5 3.5 C
1.709 3.5 3.5 1.709 3.5 -0.5 C
S
GR
GS
[0.75 0 0 0.75 233.63107 170.13596] CT
1 0 0 RC
10.0 ML
N
3.5 -0.5 M
3.5 -2.709 1.709 -4.5 -0.5 -4.5 C
-2.709 -4.5 -4.5 -2.709 -4.5 -0.5 C
-4.5 1.709 -2.709 3.5 -0.5 3.5 C
1.709 3.5 3.5 1.709 3.5 -0.5 C
S
GR
GS
[0.75 0 0 0.75 310.75497 114.17449] CT
1 0 0 RC
10.0 ML
N
3.5 -0.5 M
3.5 -2.709 1.709 -4.5 -0.5 -4.5 C
-2.709 -4.5 -4.5 -2.709 -4.5 -0.5 C
-4.5 1.709 -2.709 3.5 -0.5 3.5 C
1.709 3.5 3.5 1.709 3.5 -0.5 C
S
GR
GS
[0.75 0 0 0.75 310.45468 135.98004] CT
1 0 0 RC
10.0 ML
N
3.5 -0.5 M
3.5 -2.709 1.709 -4.5 -0.5 -4.5 C
-2.709 -4.5 -4.5 -2.709 -4.5 -0.5 C
-4.5 1.709 -2.709 3.5 -0.5 3.5 C
1.709 3.5 3.5 1.709 3.5 -0.5 C
S
GR
GS
[0.75 0 0 0.75 169.5182 204.70619] CT
1 0 0 RC
10.0 ML
N
3.5 -0.5 M
3.5 -2.709 1.709 -4.5 -0.5 -4.5 C
-2.709 -4.5 -4.5 -2.709 -4.5 -0.5 C
-4.5 1.709 -2.709 3.5 -0.5 3.5 C
1.709 3.5 3.5 1.709 3.5 -0.5 C
S
GR
GS
[0.75 0 0 0.75 189.70985 160.63597] CT
1 0 0 RC
10.0 ML
N
3.5 -0.5 M
3.5 -2.709 1.709 -4.5 -0.5 -4.5 C
-2.709 -4.5 -4.5 -2.709 -4.5 -0.5 C
-4.5 1.709 -2.709 3.5 -0.5 3.5 C
1.709 3.5 3.5 1.709 3.5 -0.5 C
S
GR
GS
[0.75 0 0 0.75 146.39128 167.37955] CT
1 0 0 RC
10.0 ML
N
3.5 -0.5 M
3.5 -2.709 1.709 -4.5 -0.5 -4.5 C
-2.709 -4.5 -4.5 -2.709 -4.5 -0.5 C
-4.5 1.709 -2.709 3.5 -0.5 3.5 C
1.709 3.5 3.5 1.709 3.5 -0.5 C
S
GR
GS
[0.75 0 0 0.75 104.90761 190.99099] CT
1 0 0 RC
10.0 ML
N
3.5 -0.5 M
3.5 -2.709 1.709 -4.5 -0.5 -4.5 C
-2.709 -4.5 -4.5 -2.709 -4.5 -0.5 C
-4.5 1.709 -2.709 3.5 -0.5 3.5 C
1.709 3.5 3.5 1.709 3.5 -0.5 C
S
GR
GS
[0.75 0 0 0.75 0 0] CT
0.851 0.325 0.098 RC
1 LJ
2.667 LW
N
187.948 297.682 M
200.239 289.495 L
130.901 339.485 L
S
GR
GS
[0.75 0 0 0.75 0 0] CT
0.851 0.325 0.098 RC
1 LJ
2.667 LW
N
447.415 134.178 M
423.227 149.209 L
354.106 192.198 L
351.49 193.826 L
147.829 326.062 L
220.692 276.15 L
149.797 324.579 L
S
GR
GS
[0.75 0 0 0.75 0 0] CT
0.851 0.325 0.098 RC
1 LJ
2.667 LW
N
308.115 220.877 M
320.843 212.929 L
328.314 208.268 L
422.604 149.596 L
317.781 214.84 L
234.551 267.245 L
S
GR
GS
[0.75 0 0 0.75 0 0] CT
0.851 0.325 0.098 RC
1 LJ
2.667 LW
N
344.879 197.944 M
139.877 332.203 L
292.505 230.643 L
290.621 231.823 L
149.797 324.579 L
226.024 272.713 L
S
GR
GS
[0.75 0 0 0.75 0 0] CT
0.851 0.325 0.098 RC
1 LJ
2.667 LW
N
297.72 227.378 M
149.797 324.579 L
160.884 316.442 L
160.884 316.442 L
S
GR
GS
[0.75 0 0 0.75 0 0] CT
0.851 0.325 0.098 RC
1 LJ
2.667 LW
N
187.948 297.682 M
217.783 278.031 L
S
GR
GS
[0.75 0 0 0.75 0 0] CT
0.851 0.325 0.098 RC
1 LJ
2.667 LW
N
257.95 252.376 M
309.724 219.872 L
S
GR
GS
[0.75 0 0 0.75 0 0] CT
0.851 0.325 0.098 RC
1 LJ
2.667 LW
N
226.024 272.713 M
205.083 286.307 L
130.901 339.485 L
252.946 255.542 L
S
GR
GS
[0.75 0 0 0.75 0 0] CT
0.851 0.325 0.098 RC
1 LJ
2.667 LW
N
160.884 316.442 M
338.544 201.891 L
344.699 198.056 L
308.115 220.877 L
S
GR
GS
[0.75 0 0 0.75 0 0] CT
0.851 0.325 0.098 RC
1 LJ
2.667 LW
N
368.971 182.946 M
343.802 198.615 L
326.082 209.66 L
290.621 231.823 L
S
GR
GS
[0.75 0 0 0.75 0 0] CT
0.851 0.325 0.098 RC
1 LJ
2.667 LW
N
308.115 220.877 M
333.227 205.205 L
289.966 232.234 L
274.044 242.229 L
S
GR
GS
[0.75 0 0 0.75 0 0] CT
0.851 0.325 0.098 RC
1 LJ
2.667 LW
N
226.024 272.713 M
226.024 272.713 L
S
GR
GS
[0.75 0 0 0.75 0 0] CT
0.851 0.325 0.098 RC
1 LJ
2.667 LW
N
305.804 222.321 M
466.381 122.393 L
466.338 122.42 L
271.204 244.016 L
S
GR
GS
[0.75 0 0 0.75 0 0] CT
0.851 0.325 0.098 RC
1 LJ
2.667 LW
N
223.752 274.176 M
311.508 218.757 L
S
GR
GS
[0.75 0 0 0.75 0 0] CT
0.851 0.325 0.098 RC
1 LJ
2.667 LW
N
301.282 225.149 M
226.024 272.713 L
S
GR
GS
[0.75 0 0 0.75 0 0] CT
0.851 0.325 0.098 RC
1 LJ
2.667 LW
N
414.34 154.733 M
413.94 154.982 L
300.986 225.334 L
188.838 297.083 L
S
GR
GS
[0.75 0 0 0.75 0 0] CT
0.851 0.325 0.098 RC
1 LJ
2.667 LW
N
205.083 286.307 M
205.083 286.307 L
226.024 272.713 L
226.024 272.713 L
S
GR
GS
[0.75 0 0 0.75 0 0] CT
0.851 0.325 0.098 RC
1 LJ
2.667 LW
N
252.946 255.542 M
195.188 292.84 L
139.877 332.203 L
139.877 332.203 L
139.877 332.203 L
S
GR
GS
[0.75 0 0 0.75 0 0] CT
1 GC
N
86 114 M
86 44 L
305 44 L
305 114 L
cp
f
GR
GS
[0.75 0 0 0.75 99.75 40.55396] CT
/Helvetica 12 F
GS
[1 0 0 1 0 0] CT
0 5 moveto 
1 -1 scale
(SED) t 
GR
GR
GS
[0.75 0 0 0.75 82.5 40.55396] CT
0 0 1 RC
10.0 ML
N
0 -4 M
0 4 L
-4 0 M
4 0 L
-2.828 -2.828 M
2.828 2.828 L
-2.828 2.828 M
2.828 -2.828 L
S
GR
GS
[0.75 0 0 0.75 99.75 53.01799] CT
/Helvetica 12 F
GS
[1 0 0 1 0 0] CT
0 5 moveto 
1 -1 scale
(Linear Fit \(SED\), RMS=0.731) t 
GR
GR
GS
[0.75 0 0 0.75 0 0] CT
0 0.447 0.741 RC
1 LJ
2.667 LW
N
90 70.691 M
130 70.691 L
S
GR
GS
[0.75 0 0 0.75 99.75 65.48201] CT
/Helvetica 12 F
GS
[1 0 0 1 0 0] CT
0 5 moveto 
1 -1 scale
(Tracks) t 
GR
GR
GS
[0.75 0 0 0.75 82.5 65.48201] CT
1 0 0 RC
10.0 ML
N
3.5 -0.5 M
3.5 -2.709 1.709 -4.5 -0.5 -4.5 C
-2.709 -4.5 -4.5 -2.709 -4.5 -0.5 C
-4.5 1.709 -2.709 3.5 -0.5 3.5 C
1.709 3.5 3.5 1.709 3.5 -0.5 C
S
GR
GS
[0.75 0 0 0.75 99.75 77.94604] CT
/Helvetica 12 F
GS
[1 0 0 1 0 0] CT
0 5 moveto 
1 -1 scale
(Linear Fit \(Tracks\), RMS=0.772) t 
GR
GR
GS
[0.75 0 0 0.75 0 0] CT
0.851 0.325 0.098 RC
1 LJ
2.667 LW
N
90 103.928 M
130 103.928 L
S
GR
GS
[0.75 0 0 0.75 0 0] CT
0.149 GC
10.0 ML
0.667 LW
N
86 114 M
86 44 L
305 44 L
305 114 L
cp
S
GR
%%Trailer
%%Pages: 1
%%EOF
