%!PS-Adobe-3.0 EPSF-3.0
%%Creator: (MATLAB, The Mathworks, Inc. Version 9.2.0.556344 \(R2017a\). Operating System: Windows 7)
%%Title: (C:/Users/Muriel Dunn/master/thesis/figures/DepthIntTS.eps)
%%CreationDate: 2019-10-26T14:42:09
%%Pages: (atend)
%%BoundingBox:    24    10   457   400
%%LanguageLevel: 2
%%EndComments
%%BeginProlog
%%BeginResource: procset (Apache XML Graphics Std ProcSet) 1.2 0
%%Version: 1.2 0
%%Copyright: (Copyright 2001-2003,2010 The Apache Software Foundation. License terms: http://www.apache.org/licenses/LICENSE-2.0)
/bd{bind def}bind def
/ld{load def}bd
/GR/grestore ld
/M/moveto ld
/LJ/setlinejoin ld
/C/curveto ld
/f/fill ld
/LW/setlinewidth ld
/GC/setgray ld
/t/show ld
/N/newpath ld
/CT/concat ld
/cp/closepath ld
/S/stroke ld
/L/lineto ld
/CC/setcmykcolor ld
/A/ashow ld
/GS/gsave ld
/RC/setrgbcolor ld
/RM/rmoveto ld
/ML/setmiterlimit ld
/re {4 2 roll M
1 index 0 rlineto
0 exch rlineto
neg 0 rlineto
cp } bd
/_ctm matrix def
/_tm matrix def
/BT { _ctm currentmatrix pop matrix _tm copy pop 0 0 moveto } bd
/ET { _ctm setmatrix } bd
/iTm { _ctm setmatrix _tm concat } bd
/Tm { _tm astore pop iTm 0 0 moveto } bd
/ux 0.0 def
/uy 0.0 def
/F {
  /Tp exch def
  /Tf exch def
  Tf findfont Tp scalefont setfont
  /cf Tf def  /cs Tp def
} bd
/ULS {currentpoint /uy exch def /ux exch def} bd
/ULE {
  /Tcx currentpoint pop def
  gsave
  newpath
  cf findfont cs scalefont dup
  /FontMatrix get 0 get /Ts exch def /FontInfo get dup
  /UnderlinePosition get Ts mul /To exch def
  /UnderlineThickness get Ts mul /Tt exch def
  ux uy To add moveto  Tcx uy To add lineto
  Tt setlinewidth stroke
  grestore
} bd
/OLE {
  /Tcx currentpoint pop def
  gsave
  newpath
  cf findfont cs scalefont dup
  /FontMatrix get 0 get /Ts exch def /FontInfo get dup
  /UnderlinePosition get Ts mul /To exch def
  /UnderlineThickness get Ts mul /Tt exch def
  ux uy To add cs add moveto Tcx uy To add cs add lineto
  Tt setlinewidth stroke
  grestore
} bd
/SOE {
  /Tcx currentpoint pop def
  gsave
  newpath
  cf findfont cs scalefont dup
  /FontMatrix get 0 get /Ts exch def /FontInfo get dup
  /UnderlinePosition get Ts mul /To exch def
  /UnderlineThickness get Ts mul /Tt exch def
  ux uy To add cs 10 mul 26 idiv add moveto Tcx uy To add cs 10 mul 26 idiv add lineto
  Tt setlinewidth stroke
  grestore
} bd
/QT {
/Y22 exch store
/X22 exch store
/Y21 exch store
/X21 exch store
currentpoint
/Y21 load 2 mul add 3 div exch
/X21 load 2 mul add 3 div exch
/X21 load 2 mul /X22 load add 3 div
/Y21 load 2 mul /Y22 load add 3 div
/X22 load /Y22 load curveto
} bd
/SSPD {
dup length /d exch dict def
{
/v exch def
/k exch def
currentpagedevice k known {
/cpdv currentpagedevice k get def
v cpdv ne {
/upd false def
/nullv v type /nulltype eq def
/nullcpdv cpdv type /nulltype eq def
nullv nullcpdv or
{
/upd true def
} {
/sametype v type cpdv type eq def
sametype {
v type /arraytype eq {
/vlen v length def
/cpdvlen cpdv length def
vlen cpdvlen eq {
0 1 vlen 1 sub {
/i exch def
/obj v i get def
/cpdobj cpdv i get def
obj cpdobj ne {
/upd true def
exit
} if
} for
} {
/upd true def
} ifelse
} {
v type /dicttype eq {
v {
/dv exch def
/dk exch def
/cpddv cpdv dk get def
dv cpddv ne {
/upd true def
exit
} if
} forall
} {
/upd true def
} ifelse
} ifelse
} if
} ifelse
upd true eq {
d k v put
} if
} if
} if
} forall
d length 0 gt {
d setpagedevice
} if
} bd
/RE { % /NewFontName [NewEncodingArray] /FontName RE -
  findfont dup length dict begin
  {
    1 index /FID ne
    {def} {pop pop} ifelse
  } forall
  /Encoding exch def
  /FontName 1 index def
  currentdict definefont pop
  end
} bind def
%%EndResource
%%BeginResource: procset (Apache XML Graphics EPS ProcSet) 1.0 0
%%Version: 1.0 0
%%Copyright: (Copyright 2002-2003 The Apache Software Foundation. License terms: http://www.apache.org/licenses/LICENSE-2.0)
/BeginEPSF { %def
/b4_Inc_state save def         % Save state for cleanup
/dict_count countdictstack def % Count objects on dict stack
/op_count count 1 sub def      % Count objects on operand stack
userdict begin                 % Push userdict on dict stack
/showpage { } def              % Redefine showpage, { } = null proc
0 setgray 0 setlinecap         % Prepare graphics state
1 setlinewidth 0 setlinejoin
10 setmiterlimit [ ] 0 setdash newpath
/languagelevel where           % If level not equal to 1 then
{pop languagelevel             % set strokeadjust and
1 ne                           % overprint to their defaults.
{false setstrokeadjust false setoverprint
} if
} if
} bd
/EndEPSF { %def
count op_count sub {pop} repeat            % Clean up stacks
countdictstack dict_count sub {end} repeat
b4_Inc_state restore
} bd
%%EndResource
%FOPBeginFontDict
%%IncludeResource: font Courier-Bold
%%IncludeResource: font Helvetica
%%IncludeResource: font Courier-BoldOblique
%%IncludeResource: font Courier-Oblique
%%IncludeResource: font Times-Roman
%%IncludeResource: font Helvetica-BoldOblique
%%IncludeResource: font Helvetica-Bold
%%IncludeResource: font Helvetica-Oblique
%%IncludeResource: font Times-BoldItalic
%%IncludeResource: font Courier
%%IncludeResource: font Times-Italic
%%IncludeResource: font Times-Bold
%%IncludeResource: font Symbol
%%IncludeResource: font ZapfDingbats
%FOPEndFontDict
%%BeginResource: encoding WinAnsiEncoding
/WinAnsiEncoding [
/.notdef /.notdef /.notdef /.notdef /.notdef
/.notdef /.notdef /.notdef /.notdef /.notdef
/.notdef /.notdef /.notdef /.notdef /.notdef
/.notdef /.notdef /.notdef /.notdef /.notdef
/.notdef /.notdef /.notdef /.notdef /.notdef
/.notdef /.notdef /.notdef /.notdef /.notdef
/.notdef /.notdef /space /exclam /quotedbl
/numbersign /dollar /percent /ampersand /quotesingle
/parenleft /parenright /asterisk /plus /comma
/hyphen /period /slash /zero /one
/two /three /four /five /six
/seven /eight /nine /colon /semicolon
/less /equal /greater /question /at
/A /B /C /D /E
/F /G /H /I /J
/K /L /M /N /O
/P /Q /R /S /T
/U /V /W /X /Y
/Z /bracketleft /backslash /bracketright /asciicircum
/underscore /quoteleft /a /b /c
/d /e /f /g /h
/i /j /k /l /m
/n /o /p /q /r
/s /t /u /v /w
/x /y /z /braceleft /bar
/braceright /asciitilde /bullet /Euro /bullet
/quotesinglbase /florin /quotedblbase /ellipsis /dagger
/daggerdbl /circumflex /perthousand /Scaron /guilsinglleft
/OE /bullet /Zcaron /bullet /bullet
/quoteleft /quoteright /quotedblleft /quotedblright /bullet
/endash /emdash /asciitilde /trademark /scaron
/guilsinglright /oe /bullet /zcaron /Ydieresis
/space /exclamdown /cent /sterling /currency
/yen /brokenbar /section /dieresis /copyright
/ordfeminine /guillemotleft /logicalnot /sfthyphen /registered
/macron /degree /plusminus /twosuperior /threesuperior
/acute /mu /paragraph /middot /cedilla
/onesuperior /ordmasculine /guillemotright /onequarter /onehalf
/threequarters /questiondown /Agrave /Aacute /Acircumflex
/Atilde /Adieresis /Aring /AE /Ccedilla
/Egrave /Eacute /Ecircumflex /Edieresis /Igrave
/Iacute /Icircumflex /Idieresis /Eth /Ntilde
/Ograve /Oacute /Ocircumflex /Otilde /Odieresis
/multiply /Oslash /Ugrave /Uacute /Ucircumflex
/Udieresis /Yacute /Thorn /germandbls /agrave
/aacute /acircumflex /atilde /adieresis /aring
/ae /ccedilla /egrave /eacute /ecircumflex
/edieresis /igrave /iacute /icircumflex /idieresis
/eth /ntilde /ograve /oacute /ocircumflex
/otilde /odieresis /divide /oslash /ugrave
/uacute /ucircumflex /udieresis /yacute /thorn
/ydieresis
] def
%%EndResource
%FOPBeginFontReencode
/Courier-Bold findfont
dup length dict begin
  {1 index /FID ne {def} {pop pop} ifelse} forall
  /Encoding WinAnsiEncoding def
  currentdict
end
/Courier-Bold exch definefont pop
/Helvetica findfont
dup length dict begin
  {1 index /FID ne {def} {pop pop} ifelse} forall
  /Encoding WinAnsiEncoding def
  currentdict
end
/Helvetica exch definefont pop
/Courier-BoldOblique findfont
dup length dict begin
  {1 index /FID ne {def} {pop pop} ifelse} forall
  /Encoding WinAnsiEncoding def
  currentdict
end
/Courier-BoldOblique exch definefont pop
/Courier-Oblique findfont
dup length dict begin
  {1 index /FID ne {def} {pop pop} ifelse} forall
  /Encoding WinAnsiEncoding def
  currentdict
end
/Courier-Oblique exch definefont pop
/Times-Roman findfont
dup length dict begin
  {1 index /FID ne {def} {pop pop} ifelse} forall
  /Encoding WinAnsiEncoding def
  currentdict
end
/Times-Roman exch definefont pop
/Helvetica-BoldOblique findfont
dup length dict begin
  {1 index /FID ne {def} {pop pop} ifelse} forall
  /Encoding WinAnsiEncoding def
  currentdict
end
/Helvetica-BoldOblique exch definefont pop
/Helvetica-Bold findfont
dup length dict begin
  {1 index /FID ne {def} {pop pop} ifelse} forall
  /Encoding WinAnsiEncoding def
  currentdict
end
/Helvetica-Bold exch definefont pop
/Helvetica-Oblique findfont
dup length dict begin
  {1 index /FID ne {def} {pop pop} ifelse} forall
  /Encoding WinAnsiEncoding def
  currentdict
end
/Helvetica-Oblique exch definefont pop
/Times-BoldItalic findfont
dup length dict begin
  {1 index /FID ne {def} {pop pop} ifelse} forall
  /Encoding WinAnsiEncoding def
  currentdict
end
/Times-BoldItalic exch definefont pop
/Courier findfont
dup length dict begin
  {1 index /FID ne {def} {pop pop} ifelse} forall
  /Encoding WinAnsiEncoding def
  currentdict
end
/Courier exch definefont pop
/Times-Italic findfont
dup length dict begin
  {1 index /FID ne {def} {pop pop} ifelse} forall
  /Encoding WinAnsiEncoding def
  currentdict
end
/Times-Italic exch definefont pop
/Times-Bold findfont
dup length dict begin
  {1 index /FID ne {def} {pop pop} ifelse} forall
  /Encoding WinAnsiEncoding def
  currentdict
end
/Times-Bold exch definefont pop
%FOPEndFontReencode
%%EndProlog
%%Page: 1 1
%%PageBoundingBox: 0 0 492 417
%%BeginPageSetup
[1 0 0 -1 0 417] CT
%%EndPageSetup
GS
[0.75 0 0 0.75 0 0] CT
1 GC
N
0 0 656 556 re
f
GR
GS
[0.75 0 0 0.75 0 0] CT
1 GC
N
0 0 656 556 re
f
GR
GS
[0.75 0 0 0.75 0 0] CT
1 GC
N
85 230 M
594 230 L
594 48 L
85 48 L
cp
f
GR
GS
[0.75 0 0 0.75 0 0] CT
0.149 GC
2 setlinecap
1 LJ
0.667 LW
N
85 230 M
594 230 L
S
GR
GS
[0.75 0 0 0.75 0 0] CT
0.149 GC
2 setlinecap
1 LJ
0.667 LW
N
85 48 M
594 48 L
S
GR
GS
[0.75 0 0 0.75 0 0] CT
0.149 GC
2 setlinecap
1 LJ
0.667 LW
N
85 230 M
85 224.91 L
S
GR
GS
[0.75 0 0 0.75 0 0] CT
0.149 GC
2 setlinecap
1 LJ
0.667 LW
N
131.273 230 M
131.273 224.91 L
S
GR
GS
[0.75 0 0 0.75 0 0] CT
0.149 GC
2 setlinecap
1 LJ
0.667 LW
N
177.545 230 M
177.545 224.91 L
S
GR
GS
[0.75 0 0 0.75 0 0] CT
0.149 GC
2 setlinecap
1 LJ
0.667 LW
N
223.818 230 M
223.818 224.91 L
S
GR
GS
[0.75 0 0 0.75 0 0] CT
0.149 GC
2 setlinecap
1 LJ
0.667 LW
N
270.091 230 M
270.091 224.91 L
S
GR
GS
[0.75 0 0 0.75 0 0] CT
0.149 GC
2 setlinecap
1 LJ
0.667 LW
N
316.364 230 M
316.364 224.91 L
S
GR
GS
[0.75 0 0 0.75 0 0] CT
0.149 GC
2 setlinecap
1 LJ
0.667 LW
N
362.636 230 M
362.636 224.91 L
S
GR
GS
[0.75 0 0 0.75 0 0] CT
0.149 GC
2 setlinecap
1 LJ
0.667 LW
N
408.909 230 M
408.909 224.91 L
S
GR
GS
[0.75 0 0 0.75 0 0] CT
0.149 GC
2 setlinecap
1 LJ
0.667 LW
N
455.182 230 M
455.182 224.91 L
S
GR
GS
[0.75 0 0 0.75 0 0] CT
0.149 GC
2 setlinecap
1 LJ
0.667 LW
N
501.455 230 M
501.455 224.91 L
S
GR
GS
[0.75 0 0 0.75 0 0] CT
0.149 GC
2 setlinecap
1 LJ
0.667 LW
N
547.727 230 M
547.727 224.91 L
S
GR
GS
[0.75 0 0 0.75 0 0] CT
0.149 GC
2 setlinecap
1 LJ
0.667 LW
N
594 230 M
594 224.91 L
S
GR
GS
[0.75 0 0 0.75 0 0] CT
0.149 GC
2 setlinecap
1 LJ
0.667 LW
N
85 48 M
85 53.09 L
S
GR
GS
[0.75 0 0 0.75 0 0] CT
0.149 GC
2 setlinecap
1 LJ
0.667 LW
N
131.273 48 M
131.273 53.09 L
S
GR
GS
[0.75 0 0 0.75 0 0] CT
0.149 GC
2 setlinecap
1 LJ
0.667 LW
N
177.545 48 M
177.545 53.09 L
S
GR
GS
[0.75 0 0 0.75 0 0] CT
0.149 GC
2 setlinecap
1 LJ
0.667 LW
N
223.818 48 M
223.818 53.09 L
S
GR
GS
[0.75 0 0 0.75 0 0] CT
0.149 GC
2 setlinecap
1 LJ
0.667 LW
N
270.091 48 M
270.091 53.09 L
S
GR
GS
[0.75 0 0 0.75 0 0] CT
0.149 GC
2 setlinecap
1 LJ
0.667 LW
N
316.364 48 M
316.364 53.09 L
S
GR
GS
[0.75 0 0 0.75 0 0] CT
0.149 GC
2 setlinecap
1 LJ
0.667 LW
N
362.636 48 M
362.636 53.09 L
S
GR
GS
[0.75 0 0 0.75 0 0] CT
0.149 GC
2 setlinecap
1 LJ
0.667 LW
N
408.909 48 M
408.909 53.09 L
S
GR
GS
[0.75 0 0 0.75 0 0] CT
0.149 GC
2 setlinecap
1 LJ
0.667 LW
N
455.182 48 M
455.182 53.09 L
S
GR
GS
[0.75 0 0 0.75 0 0] CT
0.149 GC
2 setlinecap
1 LJ
0.667 LW
N
501.455 48 M
501.455 53.09 L
S
GR
GS
[0.75 0 0 0.75 0 0] CT
0.149 GC
2 setlinecap
1 LJ
0.667 LW
N
547.727 48 M
547.727 53.09 L
S
GR
GS
[0.75 0 0 0.75 0 0] CT
0.149 GC
2 setlinecap
1 LJ
0.667 LW
N
594 48 M
594 53.09 L
S
GR
GS
[0.75 0 0 0.75 63.75 176.5] CT
0.149 GC
/Helvetica 13.333 F
GS
[1 0 0 1 0 0] CT
-16.5 14 moveto 
1 -1 scale
(09/21) t 
GR
GR
GS
[0.75 0 0 0.75 98.45455 176.5] CT
0.149 GC
/Helvetica 13.333 F
GS
[1 0 0 1 0 0] CT
-16.5 14 moveto 
1 -1 scale
(09/22) t 
GR
GR
GS
[0.75 0 0 0.75 133.15909 176.5] CT
0.149 GC
/Helvetica 13.333 F
GS
[1 0 0 1 0 0] CT
-16.5 14 moveto 
1 -1 scale
(09/23) t 
GR
GR
GS
[0.75 0 0 0.75 167.86364 176.5] CT
0.149 GC
/Helvetica 13.333 F
GS
[1 0 0 1 0 0] CT
-16.5 14 moveto 
1 -1 scale
(09/24) t 
GR
GR
GS
[0.75 0 0 0.75 202.56818 176.5] CT
0.149 GC
/Helvetica 13.333 F
GS
[1 0 0 1 0 0] CT
-16.5 14 moveto 
1 -1 scale
(09/25) t 
GR
GR
GS
[0.75 0 0 0.75 237.27274 176.5] CT
0.149 GC
/Helvetica 13.333 F
GS
[1 0 0 1 0 0] CT
-16.5 14 moveto 
1 -1 scale
(09/26) t 
GR
GR
GS
[0.75 0 0 0.75 271.97729 176.5] CT
0.149 GC
/Helvetica 13.333 F
GS
[1 0 0 1 0 0] CT
-16.5 14 moveto 
1 -1 scale
(09/27) t 
GR
GR
GS
[0.75 0 0 0.75 306.68182 176.5] CT
0.149 GC
/Helvetica 13.333 F
GS
[1 0 0 1 0 0] CT
-16.5 14 moveto 
1 -1 scale
(09/28) t 
GR
GR
GS
[0.75 0 0 0.75 341.38637 176.5] CT
0.149 GC
/Helvetica 13.333 F
GS
[1 0 0 1 0 0] CT
-16.5 14 moveto 
1 -1 scale
(09/29) t 
GR
GR
GS
[0.75 0 0 0.75 376.0909 176.5] CT
0.149 GC
/Helvetica 13.333 F
GS
[1 0 0 1 0 0] CT
-16.5 14 moveto 
1 -1 scale
(09/30) t 
GR
GR
GS
[0.75 0 0 0.75 410.79547 176.5] CT
0.149 GC
/Helvetica 13.333 F
GS
[1 0 0 1 0 0] CT
-16.5 14 moveto 
1 -1 scale
(10/01) t 
GR
GR
GS
[0.75 0 0 0.75 445.5 176.5] CT
0.149 GC
/Helvetica 13.333 F
GS
[1 0 0 1 0 0] CT
-16.5 14 moveto 
1 -1 scale
(10/02) t 
GR
GR
GS
[0.75 0 0 0.75 254.62518 190.25] CT
0.149 GC
/Helvetica 18.667 F
GS
[1 0 0 1 0 0] CT
-83 20 moveto 
1 -1 scale
(Time \(mm/dd 2018\)) t 
GR
GR
GS
[0.75 0 0 0.75 0 0] CT
0.149 GC
2 setlinecap
1 LJ
0.667 LW
N
85 230 M
85 48 L
S
GR
GS
[0.75 0 0 0.75 0 0] CT
0.149 GC
2 setlinecap
1 LJ
0.667 LW
N
594 230 M
594 48 L
S
GR
GS
[0.75 0 0 0.75 0 0] CT
0.149 GC
2 setlinecap
1 LJ
0.667 LW
N
85 230 M
90.09 230 L
S
GR
GS
[0.75 0 0 0.75 0 0] CT
0.149 GC
2 setlinecap
1 LJ
0.667 LW
N
85 184.5 M
90.09 184.5 L
S
GR
GS
[0.75 0 0 0.75 0 0] CT
0.149 GC
2 setlinecap
1 LJ
0.667 LW
N
85 139 M
90.09 139 L
S
GR
GS
[0.75 0 0 0.75 0 0] CT
0.149 GC
2 setlinecap
1 LJ
0.667 LW
N
85 93.5 M
90.09 93.5 L
S
GR
GS
[0.75 0 0 0.75 0 0] CT
0.149 GC
2 setlinecap
1 LJ
0.667 LW
N
85 48 M
90.09 48 L
S
GR
GS
[0.75 0 0 0.75 0 0] CT
0.149 GC
2 setlinecap
1 LJ
0.667 LW
N
594 230 M
588.91 230 L
S
GR
GS
[0.75 0 0 0.75 0 0] CT
0.149 GC
2 setlinecap
1 LJ
0.667 LW
N
594 184.5 M
588.91 184.5 L
S
GR
GS
[0.75 0 0 0.75 0 0] CT
0.149 GC
2 setlinecap
1 LJ
0.667 LW
N
594 139 M
588.91 139 L
S
GR
GS
[0.75 0 0 0.75 0 0] CT
0.149 GC
2 setlinecap
1 LJ
0.667 LW
N
594 93.5 M
588.91 93.5 L
S
GR
GS
[0.75 0 0 0.75 0 0] CT
0.149 GC
2 setlinecap
1 LJ
0.667 LW
N
594 48 M
588.91 48 L
S
GR
GS
[0.75 0 0 0.75 59.75 172.5] CT
0.149 GC
/Helvetica 13.333 F
GS
[1 0 0 1 0 0] CT
-8 5.5 moveto 
1 -1 scale
(0) t 
GR
GR
GS
[0.75 0 0 0.75 59.75 138.375] CT
0.149 GC
/Helvetica 13.333 F
GS
[1 0 0 1 0 0] CT
-22 5.5 moveto 
1 -1 scale
(100) t 
GR
GR
GS
[0.75 0 0 0.75 59.75 104.25] CT
0.149 GC
/Helvetica 13.333 F
GS
[1 0 0 1 0 0] CT
-22 5.5 moveto 
1 -1 scale
(200) t 
GR
GR
GS
[0.75 0 0 0.75 59.75 70.125] CT
0.149 GC
/Helvetica 13.333 F
GS
[1 0 0 1 0 0] CT
-22 5.5 moveto 
1 -1 scale
(300) t 
GR
GR
GS
[0.75 0 0 0.75 59.75 36] CT
0.149 GC
/Helvetica 13.333 F
GS
[1 0 0 1 0 0] CT
-22 5.5 moveto 
1 -1 scale
(400) t 
GR
GR
GS
[0 -0.75 0.75 0 40.25 104.24993] CT
0.149 GC
/Helvetica 16 F
GS
[1 0 0 1 0 0] CT
-43 -4 moveto 
1 -1 scale
(Fish Counts) t 
GR
GR
GS
[0.75 0 0 0.75 254.62525 33] CT
/Helvetica-Bold 21.333 F
GS
[1 0 0 1 0 0] CT
-160 -5 moveto 
1 -1 scale
(a\) Depth-Integrated Fish Counts) t 
GR
GR
GS
[0.75 0 0 0.75 0 0] CT
0 0.447 0.741 RC
1 LJ
0.667 LW
N
117.877 230 M
121.733 229.545 L
125.589 227.725 L
129.445 228.18 L
133.301 229.545 L
137.157 228.635 L
141.013 161.75 L
144.869 146.28 L
148.725 190.87 L
152.581 178.585 L
156.437 229.545 L
160.293 230 L
164.149 229.09 L
168.005 229.545 L
171.861 229.09 L
175.717 230 L
179.574 229.09 L
183.43 228.635 L
187.286 226.36 L
191.142 185.41 L
194.998 214.985 L
198.854 228.635 L
202.71 230 L
206.566 230 L
210.422 227.725 L
214.278 229.545 L
218.134 229.09 L
221.99 229.545 L
225.846 229.09 L
229.702 229.09 L
233.558 229.545 L
237.414 226.815 L
241.271 228.635 L
245.127 229.09 L
248.983 229.09 L
252.839 229.09 L
256.695 230 L
260.551 228.635 L
264.407 228.635 L
268.263 230 L
272.119 230 L
275.975 228.635 L
279.831 227.725 L
283.687 229.545 L
287.543 229.545 L
291.399 229.545 L
295.255 229.09 L
299.111 229.545 L
302.967 229.545 L
306.824 229.545 L
310.68 230 L
314.536 230 L
318.392 230 L
322.248 230 L
326.104 229.09 L
329.96 224.54 L
333.816 224.995 L
337.672 228.635 L
341.528 230 L
345.384 230 L
349.24 230 L
353.096 229.09 L
356.952 229.545 L
360.808 229.09 L
364.664 228.635 L
368.521 230 L
372.377 229.545 L
376.233 220.9 L
380.089 220.9 L
383.945 228.18 L
387.801 229.545 L
391.657 230 L
395.513 230 L
399.369 230 L
403.225 230 L
407.081 230 L
410.937 227.725 L
414.793 230 L
418.649 230 L
422.505 228.18 L
426.361 221.355 L
430.217 217.26 L
434.074 228.18 L
437.93 230 L
441.786 230 L
445.642 227.725 L
449.498 230 L
453.354 229.09 L
457.21 229.09 L
461.066 229.545 L
464.922 230 L
468.778 225.45 L
472.634 119.89 L
476.49 91.68 L
480.346 220.445 L
484.202 230 L
488.058 230 L
491.914 223.175 L
495.771 228.18 L
499.627 229.09 L
503.483 229.09 L
507.339 229.545 L
511.195 230 L
515.051 229.545 L
518.907 162.205 L
522.763 147.645 L
526.619 227.27 L
530.475 227.725 L
534.331 230 L
538.187 230 L
542.043 230 L
545.899 229.545 L
549.755 229.545 L
553.611 229.545 L
557.467 229.545 L
561.324 230 L
565.18 229.545 L
569.036 228.635 L
572.892 229.545 L
576.748 229.09 L
S
GR
GS
[0.75 0 0 0.75 0 0] CT
0.851 0.325 0.098 RC
1 LJ
0.667 LW
N
117.877 230 M
121.733 229.545 L
125.589 230 L
129.445 230 L
133.301 229.545 L
137.157 230 L
141.013 161.295 L
144.869 113.52 L
148.725 191.325 L
152.581 221.81 L
156.437 228.635 L
160.293 230 L
164.149 230 L
168.005 228.18 L
171.861 230 L
175.717 229.09 L
179.574 229.545 L
183.43 230 L
187.286 223.175 L
191.142 219.08 L
194.998 216.805 L
198.854 229.545 L
202.71 230 L
206.566 230 L
210.422 230 L
214.278 227.725 L
218.134 230 L
221.99 229.545 L
225.846 230 L
229.702 229.09 L
233.558 230 L
237.414 229.545 L
241.271 229.09 L
245.127 230 L
248.983 230 L
252.839 230 L
256.695 230 L
260.551 230 L
264.407 230 L
268.263 230 L
272.119 230 L
275.975 230 L
279.831 227.725 L
283.687 228.18 L
287.543 229.09 L
291.399 230 L
295.255 230 L
299.111 230 L
302.967 230 L
306.824 230 L
310.68 229.545 L
314.536 230 L
318.392 229.545 L
322.248 230 L
326.104 230 L
329.96 227.27 L
333.816 228.635 L
337.672 230 L
341.528 229.545 L
345.384 230 L
349.24 230 L
353.096 230 L
356.952 230 L
360.808 230 L
364.664 229.545 L
368.521 229.545 L
372.377 230 L
376.233 225.45 L
380.089 227.27 L
383.945 229.545 L
387.801 230 L
391.657 230 L
395.513 230 L
399.369 230 L
403.225 225.45 L
407.081 230 L
410.937 230 L
414.793 230 L
418.649 230 L
422.505 230 L
426.361 196.785 L
430.217 209.98 L
434.074 230 L
437.93 230 L
441.786 229.545 L
445.642 230 L
449.498 230 L
453.354 230 L
457.21 230 L
461.066 230 L
464.922 230 L
468.778 225.905 L
472.634 133.085 L
476.49 55.735 L
480.346 178.13 L
484.202 227.27 L
488.058 228.635 L
491.914 226.36 L
495.771 214.985 L
499.627 230 L
503.483 230 L
507.339 230 L
511.195 230 L
515.051 230 L
518.907 122.62 L
522.763 181.77 L
526.619 230 L
530.475 230 L
534.331 230 L
538.187 230 L
542.043 230 L
545.899 230 L
549.755 230 L
553.611 230 L
557.467 229.545 L
561.324 230 L
565.18 209.07 L
569.036 212.71 L
572.892 224.995 L
576.748 230 L
S
GR
GS
[0.75 0 0 0.75 0 0] CT
1 GC
N
98 108 M
98 61 L
226 61 L
226 108 L
cp
f
GR
GS
[0.75 0 0 0.75 108.75 55.22581] CT
/Helvetica 16 F
GS
[1 0 0 1 0 0] CT
0 6.5 moveto 
1 -1 scale
(ADCP) t 
GR
GR
GS
[0.75 0 0 0.75 0 0] CT
0 0.447 0.741 RC
1 LJ
0.667 LW
N
102 73.634 M
142 73.634 L
S
GR
GS
[0.75 0 0 0.75 108.75 71.52419] CT
/Helvetica 16 F
GS
[1 0 0 1 0 0] CT
0 6.5 moveto 
1 -1 scale
(Split-beam) t 
GR
GR
GS
[0.75 0 0 0.75 0 0] CT
0.851 0.325 0.098 RC
1 LJ
0.667 LW
N
102 95.366 M
142 95.366 L
S
GR
GS
[0.75 0 0 0.75 0 0] CT
0.149 GC
10.0 ML
0.667 LW
N
98 108 M
98 61 L
226 61 L
226 108 L
cp
S
GR
GS
[0.75 0 0 0.75 0 0] CT
1 GC
N
85 494 M
594 494 L
594 311 L
85 311 L
cp
f
GR
GS
[0.75 0 0 0.75 0 0] CT
0.149 GC
2 setlinecap
1 LJ
0.667 LW
N
85 494 M
594 494 L
S
GR
GS
[0.75 0 0 0.75 0 0] CT
0.149 GC
2 setlinecap
1 LJ
0.667 LW
N
85 311 M
594 311 L
S
GR
GS
[0.75 0 0 0.75 0 0] CT
0.149 GC
2 setlinecap
1 LJ
0.667 LW
N
85 494 M
85 488.91 L
S
GR
GS
[0.75 0 0 0.75 0 0] CT
0.149 GC
2 setlinecap
1 LJ
0.667 LW
N
131.273 494 M
131.273 488.91 L
S
GR
GS
[0.75 0 0 0.75 0 0] CT
0.149 GC
2 setlinecap
1 LJ
0.667 LW
N
177.545 494 M
177.545 488.91 L
S
GR
GS
[0.75 0 0 0.75 0 0] CT
0.149 GC
2 setlinecap
1 LJ
0.667 LW
N
223.818 494 M
223.818 488.91 L
S
GR
GS
[0.75 0 0 0.75 0 0] CT
0.149 GC
2 setlinecap
1 LJ
0.667 LW
N
270.091 494 M
270.091 488.91 L
S
GR
GS
[0.75 0 0 0.75 0 0] CT
0.149 GC
2 setlinecap
1 LJ
0.667 LW
N
316.364 494 M
316.364 488.91 L
S
GR
GS
[0.75 0 0 0.75 0 0] CT
0.149 GC
2 setlinecap
1 LJ
0.667 LW
N
362.636 494 M
362.636 488.91 L
S
GR
GS
[0.75 0 0 0.75 0 0] CT
0.149 GC
2 setlinecap
1 LJ
0.667 LW
N
408.909 494 M
408.909 488.91 L
S
GR
GS
[0.75 0 0 0.75 0 0] CT
0.149 GC
2 setlinecap
1 LJ
0.667 LW
N
455.182 494 M
455.182 488.91 L
S
GR
GS
[0.75 0 0 0.75 0 0] CT
0.149 GC
2 setlinecap
1 LJ
0.667 LW
N
501.455 494 M
501.455 488.91 L
S
GR
GS
[0.75 0 0 0.75 0 0] CT
0.149 GC
2 setlinecap
1 LJ
0.667 LW
N
547.727 494 M
547.727 488.91 L
S
GR
GS
[0.75 0 0 0.75 0 0] CT
0.149 GC
2 setlinecap
1 LJ
0.667 LW
N
594 494 M
594 488.91 L
S
GR
GS
[0.75 0 0 0.75 0 0] CT
0.149 GC
2 setlinecap
1 LJ
0.667 LW
N
85 311 M
85 316.09 L
S
GR
GS
[0.75 0 0 0.75 0 0] CT
0.149 GC
2 setlinecap
1 LJ
0.667 LW
N
131.273 311 M
131.273 316.09 L
S
GR
GS
[0.75 0 0 0.75 0 0] CT
0.149 GC
2 setlinecap
1 LJ
0.667 LW
N
177.545 311 M
177.545 316.09 L
S
GR
GS
[0.75 0 0 0.75 0 0] CT
0.149 GC
2 setlinecap
1 LJ
0.667 LW
N
223.818 311 M
223.818 316.09 L
S
GR
GS
[0.75 0 0 0.75 0 0] CT
0.149 GC
2 setlinecap
1 LJ
0.667 LW
N
270.091 311 M
270.091 316.09 L
S
GR
GS
[0.75 0 0 0.75 0 0] CT
0.149 GC
2 setlinecap
1 LJ
0.667 LW
N
316.364 311 M
316.364 316.09 L
S
GR
GS
[0.75 0 0 0.75 0 0] CT
0.149 GC
2 setlinecap
1 LJ
0.667 LW
N
362.636 311 M
362.636 316.09 L
S
GR
GS
[0.75 0 0 0.75 0 0] CT
0.149 GC
2 setlinecap
1 LJ
0.667 LW
N
408.909 311 M
408.909 316.09 L
S
GR
GS
[0.75 0 0 0.75 0 0] CT
0.149 GC
2 setlinecap
1 LJ
0.667 LW
N
455.182 311 M
455.182 316.09 L
S
GR
GS
[0.75 0 0 0.75 0 0] CT
0.149 GC
2 setlinecap
1 LJ
0.667 LW
N
501.455 311 M
501.455 316.09 L
S
GR
GS
[0.75 0 0 0.75 0 0] CT
0.149 GC
2 setlinecap
1 LJ
0.667 LW
N
547.727 311 M
547.727 316.09 L
S
GR
GS
[0.75 0 0 0.75 0 0] CT
0.149 GC
2 setlinecap
1 LJ
0.667 LW
N
594 311 M
594 316.09 L
S
GR
GS
[0.75 0 0 0.75 63.75 374.50001] CT
0.149 GC
/Helvetica 13.333 F
GS
[1 0 0 1 0 0] CT
-16.5 14 moveto 
1 -1 scale
(09/21) t 
GR
GR
GS
[0.75 0 0 0.75 98.45455 374.50001] CT
0.149 GC
/Helvetica 13.333 F
GS
[1 0 0 1 0 0] CT
-16.5 14 moveto 
1 -1 scale
(09/22) t 
GR
GR
GS
[0.75 0 0 0.75 133.15909 374.50001] CT
0.149 GC
/Helvetica 13.333 F
GS
[1 0 0 1 0 0] CT
-16.5 14 moveto 
1 -1 scale
(09/23) t 
GR
GR
GS
[0.75 0 0 0.75 167.86364 374.50001] CT
0.149 GC
/Helvetica 13.333 F
GS
[1 0 0 1 0 0] CT
-16.5 14 moveto 
1 -1 scale
(09/24) t 
GR
GR
GS
[0.75 0 0 0.75 202.56818 374.50001] CT
0.149 GC
/Helvetica 13.333 F
GS
[1 0 0 1 0 0] CT
-16.5 14 moveto 
1 -1 scale
(09/25) t 
GR
GR
GS
[0.75 0 0 0.75 237.27274 374.50001] CT
0.149 GC
/Helvetica 13.333 F
GS
[1 0 0 1 0 0] CT
-16.5 14 moveto 
1 -1 scale
(09/26) t 
GR
GR
GS
[0.75 0 0 0.75 271.97729 374.50001] CT
0.149 GC
/Helvetica 13.333 F
GS
[1 0 0 1 0 0] CT
-16.5 14 moveto 
1 -1 scale
(09/27) t 
GR
GR
GS
[0.75 0 0 0.75 306.68182 374.50001] CT
0.149 GC
/Helvetica 13.333 F
GS
[1 0 0 1 0 0] CT
-16.5 14 moveto 
1 -1 scale
(09/28) t 
GR
GR
GS
[0.75 0 0 0.75 341.38637 374.50001] CT
0.149 GC
/Helvetica 13.333 F
GS
[1 0 0 1 0 0] CT
-16.5 14 moveto 
1 -1 scale
(09/29) t 
GR
GR
GS
[0.75 0 0 0.75 376.0909 374.50001] CT
0.149 GC
/Helvetica 13.333 F
GS
[1 0 0 1 0 0] CT
-16.5 14 moveto 
1 -1 scale
(09/30) t 
GR
GR
GS
[0.75 0 0 0.75 410.79547 374.50001] CT
0.149 GC
/Helvetica 13.333 F
GS
[1 0 0 1 0 0] CT
-16.5 14 moveto 
1 -1 scale
(10/01) t 
GR
GR
GS
[0.75 0 0 0.75 445.5 374.50001] CT
0.149 GC
/Helvetica 13.333 F
GS
[1 0 0 1 0 0] CT
-16.5 14 moveto 
1 -1 scale
(10/02) t 
GR
GR
GS
[0.75 0 0 0.75 254.62518 388.25002] CT
0.149 GC
/Helvetica 18.667 F
GS
[1 0 0 1 0 0] CT
-83 20 moveto 
1 -1 scale
(Time \(mm/dd 2018\)) t 
GR
GR
GS
[0.75 0 0 0.75 0 0] CT
0.149 GC
2 setlinecap
1 LJ
0.667 LW
N
85 494 M
85 311 L
S
GR
GS
[0.75 0 0 0.75 0 0] CT
0.149 GC
2 setlinecap
1 LJ
0.667 LW
N
594 494 M
594 311 L
S
GR
GS
[0.75 0 0 0.75 0 0] CT
0.149 GC
2 setlinecap
1 LJ
0.667 LW
N
85 494 M
90.09 494 L
S
GR
GS
[0.75 0 0 0.75 0 0] CT
0.149 GC
2 setlinecap
1 LJ
0.667 LW
N
85 448.25 M
90.09 448.25 L
S
GR
GS
[0.75 0 0 0.75 0 0] CT
0.149 GC
2 setlinecap
1 LJ
0.667 LW
N
85 402.5 M
90.09 402.5 L
S
GR
GS
[0.75 0 0 0.75 0 0] CT
0.149 GC
2 setlinecap
1 LJ
0.667 LW
N
85 356.75 M
90.09 356.75 L
S
GR
GS
[0.75 0 0 0.75 0 0] CT
0.149 GC
2 setlinecap
1 LJ
0.667 LW
N
85 311 M
90.09 311 L
S
GR
GS
[0.75 0 0 0.75 0 0] CT
0.149 GC
2 setlinecap
1 LJ
0.667 LW
N
594 494 M
588.91 494 L
S
GR
GS
[0.75 0 0 0.75 0 0] CT
0.149 GC
2 setlinecap
1 LJ
0.667 LW
N
594 448.25 M
588.91 448.25 L
S
GR
GS
[0.75 0 0 0.75 0 0] CT
0.149 GC
2 setlinecap
1 LJ
0.667 LW
N
594 402.5 M
588.91 402.5 L
S
GR
GS
[0.75 0 0 0.75 0 0] CT
0.149 GC
2 setlinecap
1 LJ
0.667 LW
N
594 356.75 M
588.91 356.75 L
S
GR
GS
[0.75 0 0 0.75 0 0] CT
0.149 GC
2 setlinecap
1 LJ
0.667 LW
N
594 311 M
588.91 311 L
S
GR
GS
[0.75 0 0 0.75 59.75 370.5] CT
0.149 GC
/Helvetica 13.333 F
GS
[1 0 0 1 0 0] CT
-27 5.5 moveto 
1 -1 scale
(-100) t 
GR
GR
GS
[0.75 0 0 0.75 59.75 336.1875] CT
0.149 GC
/Helvetica 13.333 F
GS
[1 0 0 1 0 0] CT
-19 5.5 moveto 
1 -1 scale
(-50) t 
GR
GR
GS
[0.75 0 0 0.75 59.75 301.875] CT
0.149 GC
/Helvetica 13.333 F
GS
[1 0 0 1 0 0] CT
-8 5.5 moveto 
1 -1 scale
(0) t 
GR
GR
GS
[0.75 0 0 0.75 59.75 267.5625] CT
0.149 GC
/Helvetica 13.333 F
GS
[1 0 0 1 0 0] CT
-15 5.5 moveto 
1 -1 scale
(50) t 
GR
GR
GS
[0.75 0 0 0.75 59.75 233.25] CT
0.149 GC
/Helvetica 13.333 F
GS
[1 0 0 1 0 0] CT
-22 5.5 moveto 
1 -1 scale
(100) t 
GR
GR
GS
[0 -0.75 0.75 0 36.5 301.87493] CT
0.149 GC
/Helvetica 16 F
GS
[1 0 0 1 0 0] CT
-90 -4 moveto 
1 -1 scale
(Split - ADCP Fish Counts) t 
GR
GR
GS
[0.75 0 0 0.75 254.62525 230.25] CT
/Helvetica-Bold 21.333 F
GS
[1 0 0 1 0 0] CT
-140.5 -5 moveto 
1 -1 scale
(b\) Difference in Fish Counts) t 
GR
GR
GS
[0.75 0 0 0.75 0 0] CT
1 0 0 RC
1 LJ
0.667 LW
N
117.877 402.5 M
121.733 402.5 L
125.589 407.075 L
129.445 406.16 L
133.301 402.5 L
137.157 405.245 L
141.013 401.585 L
144.869 336.62 L
148.725 403.415 L
152.581 489.425 L
156.437 400.67 L
160.293 402.5 L
164.149 404.33 L
168.005 399.755 L
171.861 404.33 L
175.717 400.67 L
179.574 403.415 L
183.43 405.245 L
187.286 396.095 L
191.142 470.21 L
194.998 406.16 L
198.854 404.33 L
202.71 402.5 L
206.566 402.5 L
210.422 407.075 L
214.278 398.84 L
218.134 404.33 L
221.99 402.5 L
225.846 404.33 L
229.702 402.5 L
233.558 403.415 L
237.414 407.99 L
241.271 403.415 L
245.127 404.33 L
248.983 404.33 L
252.839 404.33 L
256.695 402.5 L
260.551 405.245 L
264.407 405.245 L
268.263 402.5 L
272.119 402.5 L
275.975 405.245 L
279.831 402.5 L
283.687 399.755 L
287.543 401.585 L
291.399 403.415 L
295.255 404.33 L
299.111 403.415 L
302.967 403.415 L
306.824 403.415 L
310.68 401.585 L
314.536 402.5 L
318.392 401.585 L
322.248 402.5 L
326.104 404.33 L
329.96 407.99 L
333.816 409.82 L
337.672 405.245 L
341.528 401.585 L
345.384 402.5 L
349.24 402.5 L
353.096 404.33 L
356.952 403.415 L
360.808 404.33 L
364.664 404.33 L
368.521 401.585 L
372.377 403.415 L
376.233 411.65 L
380.089 415.31 L
383.945 405.245 L
387.801 403.415 L
391.657 402.5 L
395.513 402.5 L
399.369 402.5 L
403.225 393.35 L
407.081 402.5 L
410.937 407.075 L
414.793 402.5 L
418.649 402.5 L
422.505 406.16 L
426.361 353.09 L
430.217 387.86 L
434.074 406.16 L
437.93 402.5 L
441.786 401.585 L
445.642 407.075 L
449.498 402.5 L
453.354 404.33 L
457.21 404.33 L
461.066 403.415 L
464.922 402.5 L
468.778 403.415 L
472.634 429.035 L
476.49 330.215 L
480.346 317.405 L
484.202 397.01 L
488.058 399.755 L
491.914 408.905 L
495.771 375.965 L
499.627 404.33 L
503.483 404.33 L
507.339 403.415 L
511.195 402.5 L
515.051 403.415 L
518.907 322.895 L
522.763 471.125 L
526.619 407.99 L
530.475 407.075 L
534.331 402.5 L
538.187 402.5 L
542.043 402.5 L
545.899 403.415 L
549.755 403.415 L
553.611 403.415 L
557.467 402.5 L
561.324 402.5 L
565.18 361.325 L
569.036 370.475 L
572.892 393.35 L
576.748 404.33 L
S
GR
%%Trailer
%%Pages: 1
%%EOF
